%YAML 1.1
%TAG !u! tag:unity3d.com,2011:
--- !u!114 &11400000
MonoBehaviour:
  m_ObjectHideFlags: 0
  m_PrefabParentObject: {fileID: 0}
  m_PrefabInternal: {fileID: 0}
  m_GameObject: {fileID: 0}
  m_Enabled: 1
  m_EditorHideFlags: 0
  m_Script: {fileID: 11500000, guid: d759ed53d4fcb954bba0a3fe15e760de, type: 3}
  m_Name: CorpseSceneData
  m_EditorClassIdentifier: 
  playerSpawnPointName: 
  stringBoolStore:
    keys:
    - BottleClicked1
    - BottleClicked2
    - BloodClicked1
    - BloodClicked2
    - PocketClicked1
    - PocketClicked2
    - WellClicked1
    - WellClicked2
    - BodyClicked1
    - BodyClicked2
    values: 01010101010101010101
