{
	"refobject": "guard",
  "npc_skin_details":[12,99,99,15,7,7],
  "npc_active":true,
	"start_game_tags": ["init"],
  "actions": [
	
	{
      "order": 1,
      "action": "talk",
      "exists_tags": [ "merchant_solved" ],
      "operation": "discussion",
      "data": "discussion_merchant"
    },
	{
      "order": 2,
      "action": "tell",
      "exists_tags": [ "has_rope" ],
	  "tell_player":"Nie będę zawracał człowieku głowy."
    },
	{
      "order": 3,
      "action": "talk",
      "exists_tags": [ "has_sticks", "has_stone" ],
      "operation": "discussion",
      "data": "discussion_all"
    },
	{
      "order": 4,
      "action": "talk",
      "exists_tags": [ "has_sticks" ],
      "operation": "discussion",
      "data": "discussion_sticks"
    },
	{
      "order": 5,
      "action": "talk",
      "exists_tags": [ "has_stone" ],
      "operation": "discussion",
      "data": "discussion_stone"
    },
    {
      "order": 6,
      "action": "talk",
      "exists_tags": [ "init" ],
      "operation": "discussion",
      "data": "discussion_intro"
    }
  ],
  "discussions": [
    {
      "discussion_step": "discussion_intro",
      "first": "hero",
      "hero_side": "Mogłbyś dać mi linę. Wydaje mi się, że będę jej potrzebował.",
	    "npc_side": "To jest moja szczęśliwa lina, ale zawsze mam zapasową. Trzymaj.",
	    "add_tags":["has_rope"],
      "get_item_sfx":true,
      "next_step": "discussion_end"
    },

    {
      "discussion_step": "discussion_all",
      "first": "hero",
      "hero_side": "Mogłbyś dać mi linę. Wydaje mi się, że będę jej potrzebował.",
      "npc_side": "To jest moja szczęśliwa lina,  ale zawsze mam zapasową. Trzymaj.",
      "get_item_sfx":true,
      "add_tags": [ "has_rope" ],
      "next_step": "discussion_all_1"
    },
	{
      "discussion_step": "discussion_all_1",
      "first": "hero",
      "hero_side": "Patyki, lina i kamień. Mogę zrobić z tego pułapkę.",
      "get_item_sfx":true,
	  "add_tags":["has_rope"],
      "next_step": "discussion_end"
    },

    {
      "discussion_step": "discussion_sticks",
      "first": "hero",
      "hero_side": "Mogłbyś dać mi linę. Wydaje mi się, że będę jej potrzebował.",
      "npc_side": "To jest moja szczęśliwa lina,  ale zawsze mam zapasową. Trzymaj.",
      "get_item_sfx":true,
      "add_tags": [ "has_rope" ],
      "next_step": "discussion_sticks_1"
    },
	{
      "discussion_step": "discussion_sticks_1",
      "first": "hero",
      "hero_side": "Lina i patyki. Jeszcze kamień i mógłbym zrobić z tego pułapkę",
      "get_item_sfx":true,
	  "add_tags":["has_rope"],
      "next_step": "discussion_end"
    },

    {
      "discussion_step": "discussion_stone",
      "first": "hero",
      "hero_side": "Mogłbyś dać mi linę. Wydaje mi się, że będę jej potrzebował.",
      "npc_side": "To jest moja szczęśliwa lina,  ale zawsze mam zapasową. Trzymaj.",
      "get_item_sfx":true,
      "add_tags": [ "has_rope" ],
      "next_step": "discussion_stone_1"
    },
	{
      "discussion_step": "discussion_stone_1",
      "first": "hero",
      "hero_side": "Lina i kamień. Jeszcze patyki i mógłbym zrobić z tego pułapkę.",
      "get_item_sfx":true,
	  "add_tags":["has_rope"],
      "next_step": "discussion_end"
    },
	{
      "discussion_step": "discussion_merchant",
      "first": "hero",
      "hero_side": "Złapałem kupca, który okazał się złodziejem. Trzeba będzie zabrać go do więzienia.\nMorderca jest nie daleko, poszedł na wschód. Jeszcze go dogonię.",
	    "npc_side": "Będę blisko.",
      "next_step": "discussion_end"
    }
  ]
	
}