{
	"refobject": "stone",
	"game_item":true,
	"actions": 
	[
    {
      "order": 1,
      "action": "take",
      "exists_tags": [ "has_sticks", "has_rope" ],
      "comment": "Kamień",
      "tell_player": "Ładny kamień, myślę że będę mógł go wykorzystać aby przygotować pułapkę.",
      "add_tags": [ "has_stone" ],
      "operation": "get",
      "get_item": true
    },

    {
      "order": 2,
      "action": "take",
      "exists_tags": [ "has_sticks" ],
      "comment": "Kamień",
      "tell_player": "Ładny kamień, myślę że będę mógł go wykorzystać.\nPatyki i kamień. Jeszcze lina i mógłbym zrobić z tego pułapkę.",
      "add_tags": [ "has_stone" ],
      "operation": "get",
      "get_item": true
    },

    {
      "order": 3,
      "action": "take",
      "exists_tags": [ "has_rope" ],
      "comment": "Kamień",
      "tell_player": "Ładny kamień, myślę że będę mógł go wykorzystać.\nLina i kamień. Jeszcze patyki i mógłbym zrobić z tego pułapkę.",
      "add_tags": [ "has_stone" ],
      "operation": "get",
      "get_item": true
    },

    {
      "order": 4,
      "action": "take",
      "operation": "get",
      "add_tags": [ "has_stone" ],
      "comment": "Kamień",
      "tell_player": "Ładny kamień, myślę że będę mógł go wykorzystać.",
      "get_item": true
    }
	]
}