%YAML 1.1
%TAG !u! tag:unity3d.com,2011:
--- !u!114 &11400000
MonoBehaviour:
  m_ObjectHideFlags: 0
  m_PrefabParentObject: {fileID: 0}
  m_PrefabInternal: {fileID: 0}
  m_GameObject: {fileID: 0}
  m_Enabled: 1
  m_EditorHideFlags: 0
  m_Script: {fileID: 11500000, guid: 460a55710e72d4046adfd5a232763ffa, type: 3}
  m_Name: Dialogue7_WhatIsGoingOn
  m_EditorClassIdentifier: 
  sentences:
  - texts:
    - "(widz\u0105c chaos dooko\u0142a\n i to i\u017C nikt nie pracuje)\n Na pi\u0119kn\u0105
      Kr\xF3low\u0105 Wiktori\u0119! Co tu si\u0119 dzieje?! Musz\u0119 pom\xF3wi\u0107
      z kierownikiem"
    speakingPersonName: Bergeron
    npcId: 1
    player: 1
