%YAML 1.1
%TAG !u! tag:unity3d.com,2011:
--- !u!1001 &100100000
Prefab:
  m_ObjectHideFlags: 1
  serializedVersion: 2
  m_Modification:
    m_TransformParent: {fileID: 0}
    m_Modifications: []
    m_RemovedComponents: []
  m_ParentPrefab: {fileID: 0}
  m_RootGameObject: {fileID: 1351822879830454}
  m_IsPrefabParent: 1
--- !u!1 &1351822879830454
GameObject:
  m_ObjectHideFlags: 0
  m_PrefabParentObject: {fileID: 0}
  m_PrefabInternal: {fileID: 100100000}
  serializedVersion: 5
  m_Component:
  - component: {fileID: 4006396993730074}
  - component: {fileID: 212265352405253202}
  - component: {fileID: 60127696398454856}
  m_Layer: 0
  m_Name: ep1_mountain5
  m_TagString: Untagged
  m_Icon: {fileID: 0}
  m_NavMeshLayer: 0
  m_StaticEditorFlags: 0
  m_IsActive: 1
--- !u!4 &4006396993730074
Transform:
  m_ObjectHideFlags: 1
  m_PrefabParentObject: {fileID: 0}
  m_PrefabInternal: {fileID: 100100000}
  m_GameObject: {fileID: 1351822879830454}
  m_LocalRotation: {x: -0, y: -0, z: -0, w: 1}
  m_LocalPosition: {x: 0, y: 0, z: 0}
  m_LocalScale: {x: 1, y: 1, z: 1}
  m_Children: []
  m_Father: {fileID: 0}
  m_RootOrder: 0
  m_LocalEulerAnglesHint: {x: 0, y: 0, z: 0}
--- !u!60 &60127696398454856
PolygonCollider2D:
  m_ObjectHideFlags: 1
  m_PrefabParentObject: {fileID: 0}
  m_PrefabInternal: {fileID: 100100000}
  m_GameObject: {fileID: 1351822879830454}
  m_Enabled: 1
  m_Density: 1
  m_Material: {fileID: 0}
  m_IsTrigger: 0
  m_UsedByEffector: 0
  m_UsedByComposite: 0
  m_Offset: {x: 0, y: 0}
  m_SpriteTilingProperty:
    border: {x: 0, y: 0, z: 0, w: 0}
    pivot: {x: 0.5, y: 0.5}
    oldSize: {x: 1.7066667, y: 1.7066667}
    newSize: {x: 1.7066667, y: 1.7066667}
    adaptiveTilingThreshold: 0.5
    drawMode: 0
    adaptiveTiling: 0
  m_AutoTiling: 0
  m_Points:
    m_Paths:
    - - {x: 0.62333333, y: -0.006666667}
      - {x: 0.53333336, y: -0.043333333}
      - {x: 0.45333335, y: -0.07}
      - {x: 0.4166667, y: 0.02}
      - {x: 0.35666668, y: 0.08}
      - {x: 0.35666668, y: 0.10333334}
      - {x: 0.31666666, y: 0.11333334}
      - {x: 0.24000001, y: 0.08}
      - {x: 0.13000001, y: 0.043333333}
      - {x: 0.12666667, y: 0.13666667}
      - {x: 0.14666668, y: 0.15}
      - {x: 0.14333333, y: 0.16}
      - {x: 0.13666667, y: 0.16666667}
      - {x: 0.13000001, y: 0.16666667}
      - {x: 0.09666667, y: 0.18}
      - {x: 0.06333333, y: 0.18}
      - {x: 0.06666667, y: 0.48666668}
      - {x: 0.093333334, y: 0.51}
      - {x: 0.07333334, y: 0.58000004}
      - {x: 0.06333333, y: 0.6666667}
      - {x: 0.07333334, y: 0.6933333}
      - {x: 0.08, y: 0.7733334}
      - {x: 0.07, y: 0.8466667}
      - {x: 0.06333333, y: 0.85333335}
      - {x: -0.85333335, y: 0.85333335}
      - {x: -0.85333335, y: -0.85333335}
      - {x: 0.85333335, y: -0.85333335}
      - {x: 0.85333335, y: -0.016666668}
      - {x: 0.8466667, y: -0.01}
--- !u!212 &212265352405253202
SpriteRenderer:
  m_ObjectHideFlags: 1
  m_PrefabParentObject: {fileID: 0}
  m_PrefabInternal: {fileID: 100100000}
  m_GameObject: {fileID: 1351822879830454}
  m_Enabled: 1
  m_CastShadows: 0
  m_ReceiveShadows: 0
  m_DynamicOccludee: 1
  m_MotionVectors: 1
  m_LightProbeUsage: 1
  m_ReflectionProbeUsage: 1
  m_Materials:
  - {fileID: 10754, guid: 0000000000000000f000000000000000, type: 0}
  m_StaticBatchInfo:
    firstSubMesh: 0
    subMeshCount: 0
  m_StaticBatchRoot: {fileID: 0}
  m_ProbeAnchor: {fileID: 0}
  m_LightProbeVolumeOverride: {fileID: 0}
  m_ScaleInLightmap: 1
  m_PreserveUVs: 0
  m_IgnoreNormalsForChartDetection: 0
  m_ImportantGI: 0
  m_StitchLightmapSeams: 0
  m_SelectedEditorRenderState: 0
  m_MinimumChartSize: 4
  m_AutoUVMaxDistance: 0.5
  m_AutoUVMaxAngle: 89
  m_LightmapParameters: {fileID: 0}
  m_SortingLayerID: -963919319
  m_SortingLayer: 2
  m_SortingOrder: 0
  m_Sprite: {fileID: 21300000, guid: 969f5bcb3891994489e091e3738d9ec7, type: 3}
  m_Color: {r: 1, g: 1, b: 1, a: 1}
  m_FlipX: 0
  m_FlipY: 0
  m_DrawMode: 0
  m_Size: {x: 1.7066667, y: 1.7066667}
  m_AdaptiveModeThreshold: 0.5
  m_SpriteTileMode: 0
  m_WasSpriteAssigned: 1
  m_MaskInteraction: 0
