%YAML 1.1
%TAG !u! tag:unity3d.com,2011:
--- !u!74 &7400000
AnimationClip:
  m_ObjectHideFlags: 0
  m_PrefabParentObject: {fileID: 0}
  m_PrefabInternal: {fileID: 0}
  m_Name: ep_NPC_gameplay_WALK
  serializedVersion: 6
  m_Legacy: 0
  m_Compressed: 0
  m_UseHighQualityCurve: 1
  m_RotationCurves: []
  m_CompressedRotationCurves: []
  m_EulerCurves:
  - curve:
      serializedVersion: 2
      m_Curve:
      - serializedVersion: 2
        time: 0
        value: {x: 0, y: 0, z: -4.315}
        inSlope: {x: 0, y: 0, z: 0}
        outSlope: {x: 0, y: 0, z: 0}
        tangentMode: 0
      - serializedVersion: 2
        time: 0.2
        value: {x: 0, y: 0, z: -8.783}
        inSlope: {x: 0, y: 0, z: 0}
        outSlope: {x: 0, y: 0, z: 0}
        tangentMode: 0
      - serializedVersion: 2
        time: 0.4
        value: {x: 0, y: 0, z: -4.901}
        inSlope: {x: 0, y: 0, z: 0}
        outSlope: {x: 0, y: 0, z: 0}
        tangentMode: 0
      - serializedVersion: 2
        time: 0.6
        value: {x: 0, y: 0, z: -8.776}
        inSlope: {x: 0, y: 0, z: 0}
        outSlope: {x: 0, y: 0, z: 0}
        tangentMode: 0
      - serializedVersion: 2
        time: 0.8
        value: {x: 0, y: 0, z: -4.315}
        inSlope: {x: 0, y: 0, z: 0}
        outSlope: {x: 0, y: 0, z: 0}
        tangentMode: 0
      m_PreInfinity: 2
      m_PostInfinity: 2
      m_RotationOrder: 4
    path: ep4_NPC_BONES/ep4_NPC_ROOT_bone/ep4_NPC_TORSO_bone/ep4_NPC_HEAD_bone
  m_PositionCurves:
  - curve:
      serializedVersion: 2
      m_Curve:
      - serializedVersion: 2
        time: 0
        value: {x: -0.694, y: -0.15220934, z: 0}
        inSlope: {x: 0, y: -2.643127, z: 0}
        outSlope: {x: 0, y: -2.643127, z: 0}
        tangentMode: 0
      - serializedVersion: 2
        time: 0.2
        value: {x: -0.529, y: -0.449, z: 0}
        inSlope: {x: 0, y: 0, z: 0}
        outSlope: {x: 0, y: 0, z: 0}
        tangentMode: 0
      - serializedVersion: 2
        time: 0.3
        value: {x: -0.646, y: -0.317, z: 0}
        inSlope: {x: -0.39999965, y: 1.147826, z: 0}
        outSlope: {x: -0.39999965, y: 1.147826, z: 0}
        tangentMode: 0
      - serializedVersion: 2
        time: 0.4
        value: {x: -0.666, y: -0.17928201, z: 0}
        inSlope: {x: 0, y: 1.518176, z: 0}
        outSlope: {x: 0, y: 1.518176, z: 0}
        tangentMode: 0
      - serializedVersion: 2
        time: 0.66
        value: {x: -0.5841789, y: 0.09572968, z: 0}
        inSlope: {x: 0.19875547, y: 0, z: 0}
        outSlope: {x: 0.19875547, y: 0, z: 0}
        tangentMode: 0
      - serializedVersion: 2
        time: 0.7
        value: {x: -0.58, y: 0.06865308, z: 0}
        inSlope: {x: 0, y: -1.2854643, z: 0}
        outSlope: {x: 0, y: -1.2854643, z: 0}
        tangentMode: 0
      - serializedVersion: 2
        time: 0.8
        value: {x: -0.694, y: -0.15220965, z: 0}
        inSlope: {x: 0, y: -2.7044952, z: 0}
        outSlope: {x: 0, y: -2.7044952, z: 0}
        tangentMode: 0
      m_PreInfinity: 2
      m_PostInfinity: 2
      m_RotationOrder: 4
    path: ep4_NPC_BONES/ep4_NPC_ROOT_bone/ep4_NPC_TORSO_bone/ep4_NPC_Hand.L_IK
  - curve:
      serializedVersion: 2
      m_Curve:
      - serializedVersion: 2
        time: 0
        value: {x: -0.67, y: 0.097913876, z: 0}
        inSlope: {x: 0, y: 2.026208, z: 0}
        outSlope: {x: 0, y: 2.026208, z: 0}
        tangentMode: 0
      - serializedVersion: 2
        time: 0.2
        value: {x: -0.65, y: 0.48, z: 0}
        inSlope: {x: 0, y: 0.63608944, z: 0}
        outSlope: {x: 0, y: 0.63608944, z: 0}
        tangentMode: 0
      - serializedVersion: 2
        time: 0.3
        value: {x: -0.687, y: 0.3497556, z: 0}
        inSlope: {x: -0.29000014, y: -1.0419552, z: 0}
        outSlope: {x: -0.29000014, y: -1.0419552, z: 0}
        tangentMode: 0
      - serializedVersion: 2
        time: 0.4
        value: {x: -0.708, y: 0.20608139, z: 0}
        inSlope: {x: 0, y: -1.7265222, z: 0}
        outSlope: {x: 0, y: -1.7265222, z: 0}
        tangentMode: 0
      - serializedVersion: 2
        time: 0.7
        value: {x: -0.51, y: -0.19465527, z: 0}
        inSlope: {x: 0, y: 0, z: 0}
        outSlope: {x: 0, y: 0, z: 0}
        tangentMode: 0
      - serializedVersion: 2
        time: 0.8
        value: {x: -0.67, y: -0.031, z: 0}
        inSlope: {x: 0, y: 2.2543156, z: 0}
        outSlope: {x: 0, y: 2.2543156, z: 0}
        tangentMode: 0
      m_PreInfinity: 2
      m_PostInfinity: 2
      m_RotationOrder: 4
    path: ep4_NPC_BONES/ep4_NPC_ROOT_bone/ep4_NPC_TORSO_bone/ep4_NPC_Hand.R_IK
  - curve:
      serializedVersion: 2
      m_Curve:
      - serializedVersion: 2
        time: 0
        value: {x: 0.14234841, y: -0.40734196, z: 0}
        inSlope: {x: 0, y: 0.34849164, z: 0}
        outSlope: {x: 0, y: 0.34849164, z: 0}
        tangentMode: 0
      - serializedVersion: 2
        time: 0.2
        value: {x: 0.13413106, y: -0.42773986, z: 0}
        inSlope: {x: -0.08198477, y: -0.06885847, z: 0}
        outSlope: {x: -0.08198477, y: -0.06885847, z: 0}
        tangentMode: 0
      - serializedVersion: 2
        time: 0.3
        value: {x: 0.11979316, y: -0.43290424, z: 0}
        inSlope: {x: -0.16382806, y: 0, z: 0}
        outSlope: {x: -0.16382806, y: 0, z: 0}
        tangentMode: 0
      - serializedVersion: 2
        time: 0.4
        value: {x: 0.1095545, y: -0.41464424, z: 0}
        inSlope: {x: 0, y: 0.27390006, z: 0}
        outSlope: {x: 0, y: 0.27390006, z: 0}
        tangentMode: 0
      - serializedVersion: 2
        time: 0.5
        value: {x: 0.11613538, y: -0.39638424, z: 0}
        inSlope: {x: 0.10896131, y: 0, z: 0}
        outSlope: {x: 0.10896131, y: 0, z: 0}
        tangentMode: 0
      - serializedVersion: 2
        time: 0.6
        value: {x: 0.1268155, y: -0.40484685, z: 0}
        inSlope: {x: 0.08198477, y: -0.13302644, z: 0}
        outSlope: {x: 0.08198477, y: -0.13302644, z: 0}
        tangentMode: 0
      - serializedVersion: 2
        time: 0.8
        value: {x: 0.14234841, y: -0.40734196, z: 0}
        inSlope: {x: 0, y: 0.25297672, z: 0}
        outSlope: {x: 0, y: 0.25297672, z: 0}
        tangentMode: 0
      m_PreInfinity: 2
      m_PostInfinity: 2
      m_RotationOrder: 4
    path: ep4_NPC_BONES/ep4_NPC_ROOT_bone
  - curve:
      serializedVersion: 2
      m_Curve:
      - serializedVersion: 2
        time: 0
        value: {x: -0.19855195, y: -1.5660414, z: 0}
        inSlope: {x: 3.1528218, y: 0, z: 0}
        outSlope: {x: 3.1528218, y: 0, z: 0}
        tangentMode: 0
      - serializedVersion: 2
        time: 0.2
        value: {x: 0.29009598, y: -1.6722933, z: 0}
        inSlope: {x: 1.460571, y: -0.02689566, z: 0}
        outSlope: {x: 1.460571, y: -0.02689566, z: 0}
        tangentMode: 0
      - serializedVersion: 2
        time: 0.3
        value: {x: 0.36653814, y: -1.674504, z: 0}
        inSlope: {x: 0, y: -0.01764369, z: 0}
        outSlope: {x: 0, y: -0.01764369, z: 0}
        tangentMode: 0
      - serializedVersion: 2
        time: 0.7
        value: {x: -0.38881958, y: -1.677, z: 0}
        inSlope: {x: 0, y: 0, z: 0}
        outSlope: {x: 0, y: 0, z: 0}
        tangentMode: 0
      - serializedVersion: 2
        time: 0.8
        value: {x: -0.19513021, y: -1.5660414, z: 0}
        inSlope: {x: 2.911583, y: 0, z: 0}
        outSlope: {x: 2.911583, y: 0, z: 0}
        tangentMode: 0
      m_PreInfinity: 2
      m_PostInfinity: 2
      m_RotationOrder: 4
    path: ep4_NPC_BONES/ep4_NPC_LEG0.R_IK
  - curve:
      serializedVersion: 2
      m_Curve:
      - serializedVersion: 2
        time: 0
        value: {x: 0.18352759, y: -1.672, z: 0}
        inSlope: {x: -3.1543434, y: 0, z: 0}
        outSlope: {x: -3.1543434, y: 0, z: 0}
        tangentMode: 0
      - serializedVersion: 2
        time: 0.24
        value: {x: -0.26716846, y: -1.65664, z: 0}
        inSlope: {x: 0, y: 0.19200046, z: 0}
        outSlope: {x: 0, y: 0.19200046, z: 0}
        tangentMode: 0
      - serializedVersion: 2
        time: 0.3
        value: {x: -0.22235374, y: -1.642, z: 0}
        inSlope: {x: 1.412179, y: 0.3000009, z: 0}
        outSlope: {x: 1.412179, y: 0.3000009, z: 0}
        tangentMode: 0
      - serializedVersion: 2
        time: 0.4
        value: {x: -0.0065440014, y: -1.5051343, z: 0}
        inSlope: {x: 2.6772277, y: 0, z: 0}
        outSlope: {x: 2.6772277, y: 0, z: 0}
        tangentMode: 0
      - serializedVersion: 2
        time: 0.5
        value: {x: 0.2677342, y: -1.529, z: 0}
        inSlope: {x: 2.5815494, y: -0.23865701, z: 0}
        outSlope: {x: 2.5815494, y: -0.23865701, z: 0}
        tangentMode: 0
      - serializedVersion: 2
        time: 0.66
        value: {x: 0.48855639, y: -1.6159554, z: 0}
        inSlope: {x: -0.40184945, y: -0.6449977, z: 0}
        outSlope: {x: -0.40184945, y: -0.6449977, z: 0}
        tangentMode: 0
      - serializedVersion: 2
        time: 0.8
        value: {x: 0.1833416, y: -1.672, z: 0}
        inSlope: {x: -3.5081892, y: 0, z: 0}
        outSlope: {x: -3.5081892, y: 0, z: 0}
        tangentMode: 0
      m_PreInfinity: 2
      m_PostInfinity: 2
      m_RotationOrder: 4
    path: ep4_NPC_BONES/ep4_NPC_LEG0.L_IK
  - curve:
      serializedVersion: 2
      m_Curve:
      - serializedVersion: 2
        time: 0.3
        value: {x: 0.119, y: -0.013, z: 0}
        inSlope: {x: 0, y: 0, z: 0}
        outSlope: {x: 0, y: 0, z: 0}
        tangentMode: 0
      - serializedVersion: 2
        time: 0.4
        value: {x: 0.12, y: -0.04, z: 0}
        inSlope: {x: 0, y: 0, z: 0}
        outSlope: {x: 0, y: 0, z: 0}
        tangentMode: 0
      - serializedVersion: 2
        time: 0.6
        value: {x: 0.086, y: 0.05, z: 0}
        inSlope: {x: -0.12000005, y: 0, z: 0}
        outSlope: {x: -0.12000005, y: 0, z: 0}
        tangentMode: 0
      - serializedVersion: 2
        time: 0.7
        value: {x: 0.077, y: 0.01814362, z: 0}
        inSlope: {x: 0, y: -0.47784597, z: 0}
        outSlope: {x: 0, y: -0.47784597, z: 0}
        tangentMode: 0
      - serializedVersion: 2
        time: 0.8
        value: {x: 0.077, y: -0.01371279, z: 0}
        inSlope: {x: 0, y: 0, z: 0}
        outSlope: {x: 0, y: 0, z: 0}
        tangentMode: 0
      m_PreInfinity: 2
      m_PostInfinity: 2
      m_RotationOrder: 4
    path: ep4_NPC_BONES/ep4_NPC_LEG0.L_IK/ep4_NPC_FOOT.L_IK
  - curve:
      serializedVersion: 2
      m_Curve:
      - serializedVersion: 2
        time: 0
        value: {x: 0.093, y: -0.153, z: 0}
        inSlope: {x: 0, y: 0, z: 0}
        outSlope: {x: 0, y: 0, z: 0}
        tangentMode: 0
      - serializedVersion: 2
        time: 0.1
        value: {x: 0.159, y: -0.079, z: 0}
        inSlope: {x: 0.18000011, y: 1.1400001, z: 0}
        outSlope: {x: 0.18000011, y: 1.1400001, z: 0}
        tangentMode: 0
      - serializedVersion: 2
        time: 0.2
        value: {x: 0.168, y: 0.075, z: 0}
        inSlope: {x: 0, y: 0.67999977, z: 0}
        outSlope: {x: 0, y: 0.67999977, z: 0}
        tangentMode: 0
      - serializedVersion: 2
        time: 0.3
        value: {x: 0.154, y: 0.109, z: 0}
        inSlope: {x: 0, y: 0, z: 0}
        outSlope: {x: 0, y: 0, z: 0}
        tangentMode: 0
      - serializedVersion: 2
        time: 0.4
        value: {x: 0.176, y: 0.026, z: 0}
        inSlope: {x: 0, y: -0.39666665, z: 0}
        outSlope: {x: 0, y: -0.39666665, z: 0}
        tangentMode: 0
      - serializedVersion: 2
        time: 0.6
        value: {x: 0.174, y: -0.01, z: 0}
        inSlope: {x: 0, y: -0.16666667, z: 0}
        outSlope: {x: 0, y: -0.16666667, z: 0}
        tangentMode: 0
      - serializedVersion: 2
        time: 0.7
        value: {x: 0.174, y: -0.024, z: 0}
        inSlope: {x: 0, y: -0.28, z: 0}
        outSlope: {x: 0, y: -0.28, z: 0}
        tangentMode: 0
      - serializedVersion: 2
        time: 0.8
        value: {x: 0.093, y: -0.153, z: 0}
        inSlope: {x: 0, y: 0, z: 0}
        outSlope: {x: 0, y: 0, z: 0}
        tangentMode: 0
      m_PreInfinity: 2
      m_PostInfinity: 2
      m_RotationOrder: 4
    path: ep4_NPC_BONES/ep4_NPC_LEG0.R_IK/ep4_NPC_FOOT.R_IK
  m_ScaleCurves: []
  m_FloatCurves: []
  m_PPtrCurves: []
  m_SampleRate: 50
  m_WrapMode: 0
  m_Bounds:
    m_Center: {x: 0, y: 0, z: 0}
    m_Extent: {x: 0, y: 0, z: 0}
  m_ClipBindingConstant:
    genericBindings:
    - serializedVersion: 2
      path: 3580475813
      attribute: 1
      script: {fileID: 0}
      typeID: 4
      customType: 0
      isPPtrCurve: 0
    - serializedVersion: 2
      path: 1706006793
      attribute: 1
      script: {fileID: 0}
      typeID: 4
      customType: 0
      isPPtrCurve: 0
    - serializedVersion: 2
      path: 2256217503
      attribute: 1
      script: {fileID: 0}
      typeID: 4
      customType: 0
      isPPtrCurve: 0
    - serializedVersion: 2
      path: 3318925435
      attribute: 1
      script: {fileID: 0}
      typeID: 4
      customType: 0
      isPPtrCurve: 0
    - serializedVersion: 2
      path: 1964304599
      attribute: 1
      script: {fileID: 0}
      typeID: 4
      customType: 0
      isPPtrCurve: 0
    - serializedVersion: 2
      path: 1547605556
      attribute: 1
      script: {fileID: 0}
      typeID: 4
      customType: 0
      isPPtrCurve: 0
    - serializedVersion: 2
      path: 2394783833
      attribute: 1
      script: {fileID: 0}
      typeID: 4
      customType: 0
      isPPtrCurve: 0
    - serializedVersion: 2
      path: 808178178
      attribute: 4
      script: {fileID: 0}
      typeID: 4
      customType: 4
      isPPtrCurve: 0
    pptrCurveMapping: []
  m_AnimationClipSettings:
    serializedVersion: 2
    m_AdditiveReferencePoseClip: {fileID: 0}
    m_AdditiveReferencePoseTime: 0
    m_StartTime: 0
    m_StopTime: 0.8
    m_OrientationOffsetY: 0
    m_Level: 0
    m_CycleOffset: 0
    m_HasAdditiveReferencePose: 0
    m_LoopTime: 1
    m_LoopBlend: 0
    m_LoopBlendOrientation: 0
    m_LoopBlendPositionY: 0
    m_LoopBlendPositionXZ: 0
    m_KeepOriginalOrientation: 0
    m_KeepOriginalPositionY: 1
    m_KeepOriginalPositionXZ: 0
    m_HeightFromFeet: 0
    m_Mirror: 0
  m_EditorCurves:
  - curve:
      serializedVersion: 2
      m_Curve:
      - serializedVersion: 2
        time: 0
        value: -0.694
        inSlope: 0
        outSlope: 0
        tangentMode: 136
      - serializedVersion: 2
        time: 0.2
        value: -0.529
        inSlope: 0
        outSlope: 0
        tangentMode: 136
      - serializedVersion: 2
        time: 0.3
        value: -0.646
        inSlope: -0.39999965
        outSlope: -0.39999965
        tangentMode: 136
      - serializedVersion: 2
        time: 0.4
        value: -0.666
        inSlope: 0
        outSlope: 0
        tangentMode: 136
      - serializedVersion: 2
        time: 0.7
        value: -0.58
        inSlope: 0
        outSlope: 0
        tangentMode: 136
      - serializedVersion: 2
        time: 0.8
        value: -0.694
        inSlope: 0
        outSlope: 0
        tangentMode: 136
      m_PreInfinity: 2
      m_PostInfinity: 2
      m_RotationOrder: 4
    attribute: m_LocalPosition.x
    path: ep4_NPC_BONES/ep4_NPC_ROOT_bone/ep4_NPC_TORSO_bone/ep4_NPC_Hand.L_IK
    classID: 4
    script: {fileID: 0}
  - curve:
      serializedVersion: 2
      m_Curve:
      - serializedVersion: 2
        time: 0
        value: -0.15220934
        inSlope: -2.643127
        outSlope: -2.643127
        tangentMode: 0
      - serializedVersion: 2
        time: 0.2
        value: -0.449
        inSlope: 0
        outSlope: 0
        tangentMode: 136
      - serializedVersion: 2
        time: 0.3
        value: -0.317
        inSlope: 1.147826
        outSlope: 1.147826
        tangentMode: 136
      - serializedVersion: 2
        time: 0.66
        value: 0.09572968
        inSlope: 0
        outSlope: 0
        tangentMode: 136
      - serializedVersion: 2
        time: 0.8
        value: -0.15220965
        inSlope: -2.7044952
        outSlope: -2.7044952
        tangentMode: 0
      m_PreInfinity: 2
      m_PostInfinity: 2
      m_RotationOrder: 4
    attribute: m_LocalPosition.y
    path: ep4_NPC_BONES/ep4_NPC_ROOT_bone/ep4_NPC_TORSO_bone/ep4_NPC_Hand.L_IK
    classID: 4
    script: {fileID: 0}
  - curve:
      serializedVersion: 2
      m_Curve:
      - serializedVersion: 2
        time: 0
        value: -0.67
        inSlope: 0
        outSlope: 0
        tangentMode: 136
      - serializedVersion: 2
        time: 0.2
        value: -0.65
        inSlope: 0
        outSlope: 0
        tangentMode: 136
      - serializedVersion: 2
        time: 0.3
        value: -0.687
        inSlope: -0.29000014
        outSlope: -0.29000014
        tangentMode: 136
      - serializedVersion: 2
        time: 0.4
        value: -0.708
        inSlope: 0
        outSlope: 0
        tangentMode: 136
      - serializedVersion: 2
        time: 0.7
        value: -0.51
        inSlope: 0
        outSlope: 0
        tangentMode: 136
      - serializedVersion: 2
        time: 0.8
        value: -0.67
        inSlope: 0
        outSlope: 0
        tangentMode: 136
      m_PreInfinity: 2
      m_PostInfinity: 2
      m_RotationOrder: 4
    attribute: m_LocalPosition.x
    path: ep4_NPC_BONES/ep4_NPC_ROOT_bone/ep4_NPC_TORSO_bone/ep4_NPC_Hand.R_IK
    classID: 4
    script: {fileID: 0}
  - curve:
      serializedVersion: 2
      m_Curve:
      - serializedVersion: 2
        time: 0
        value: 0.097913876
        inSlope: 2.026208
        outSlope: 2.026208
        tangentMode: 0
      - serializedVersion: 2
        time: 0.2
        value: 0.48
        inSlope: 0.63608944
        outSlope: 0.63608944
        tangentMode: 0
      - serializedVersion: 2
        time: 0.3
        value: 0.3497556
        inSlope: -1.0419552
        outSlope: -1.0419552
        tangentMode: 136
      - serializedVersion: 2
        time: 0.7
        value: -0.19465527
        inSlope: 0
        outSlope: 0
        tangentMode: 136
      - serializedVersion: 2
        time: 0.8
        value: -0.031
        inSlope: 2.2543156
        outSlope: 2.2543156
        tangentMode: 0
      m_PreInfinity: 2
      m_PostInfinity: 2
      m_RotationOrder: 4
    attribute: m_LocalPosition.y
    path: ep4_NPC_BONES/ep4_NPC_ROOT_bone/ep4_NPC_TORSO_bone/ep4_NPC_Hand.R_IK
    classID: 4
    script: {fileID: 0}
  - curve:
      serializedVersion: 2
      m_Curve:
      - serializedVersion: 2
        time: 0
        value: 0.14234841
        inSlope: 0
        outSlope: 0
        tangentMode: 136
      - serializedVersion: 2
        time: 0.2
        value: 0.13413106
        inSlope: -0.08198477
        outSlope: -0.08198477
        tangentMode: 136
      - serializedVersion: 2
        time: 0.4
        value: 0.1095545
        inSlope: 0
        outSlope: 0
        tangentMode: 136
      - serializedVersion: 2
        time: 0.6
        value: 0.1268155
        inSlope: 0.08198477
        outSlope: 0.08198477
        tangentMode: 136
      - serializedVersion: 2
        time: 0.8
        value: 0.14234841
        inSlope: 0
        outSlope: 0
        tangentMode: 136
      m_PreInfinity: 2
      m_PostInfinity: 2
      m_RotationOrder: 4
    attribute: m_LocalPosition.x
    path: ep4_NPC_BONES/ep4_NPC_ROOT_bone
    classID: 4
    script: {fileID: 0}
  - curve:
      serializedVersion: 2
      m_Curve:
      - serializedVersion: 2
        time: 0
        value: -0.40734196
        inSlope: 0.34849164
        outSlope: 0.34849164
        tangentMode: 0
      - serializedVersion: 2
        time: 0.2
        value: -0.42773986
        inSlope: -0.06885847
        outSlope: -0.06885847
        tangentMode: 136
      - serializedVersion: 2
        time: 0.3
        value: -0.43290424
        inSlope: 0
        outSlope: 0
        tangentMode: 136
      - serializedVersion: 2
        time: 0.5
        value: -0.39638424
        inSlope: 0
        outSlope: 0
        tangentMode: 136
      - serializedVersion: 2
        time: 0.8
        value: -0.40734196
        inSlope: 0.25297672
        outSlope: 0.25297672
        tangentMode: 0
      m_PreInfinity: 2
      m_PostInfinity: 2
      m_RotationOrder: 4
    attribute: m_LocalPosition.y
    path: ep4_NPC_BONES/ep4_NPC_ROOT_bone
    classID: 4
    script: {fileID: 0}
  - curve:
      serializedVersion: 2
      m_Curve:
      - serializedVersion: 2
        time: 0
        value: -0.19855195
        inSlope: 3.1528218
        outSlope: 3.1528218
        tangentMode: 0
      - serializedVersion: 2
        time: 0.3
        value: 0.36653814
        inSlope: 0
        outSlope: 0
        tangentMode: 136
      - serializedVersion: 2
        time: 0.7
        value: -0.38881958
        inSlope: 0
        outSlope: 0
        tangentMode: 136
      - serializedVersion: 2
        time: 0.8
        value: -0.19513021
        inSlope: 2.911583
        outSlope: 2.911583
        tangentMode: 0
      m_PreInfinity: 2
      m_PostInfinity: 2
      m_RotationOrder: 4
    attribute: m_LocalPosition.x
    path: ep4_NPC_BONES/ep4_NPC_LEG0.R_IK
    classID: 4
    script: {fileID: 0}
  - curve:
      serializedVersion: 2
      m_Curve:
      - serializedVersion: 2
        time: 0
        value: -1.5660414
        inSlope: 0
        outSlope: 0
        tangentMode: 136
      - serializedVersion: 2
        time: 0.2
        value: -1.6722933
        inSlope: -0.02689566
        outSlope: -0.02689566
        tangentMode: 136
      - serializedVersion: 2
        time: 0.7
        value: -1.677
        inSlope: 0
        outSlope: 0
        tangentMode: 136
      - serializedVersion: 2
        time: 0.8
        value: -1.5660414
        inSlope: 0
        outSlope: 0
        tangentMode: 136
      m_PreInfinity: 2
      m_PostInfinity: 2
      m_RotationOrder: 4
    attribute: m_LocalPosition.y
    path: ep4_NPC_BONES/ep4_NPC_LEG0.R_IK
    classID: 4
    script: {fileID: 0}
  - curve:
      serializedVersion: 2
      m_Curve:
      - serializedVersion: 2
        time: 0
        value: 0.18352759
        inSlope: -3.1543434
        outSlope: -3.1543434
        tangentMode: 0
      - serializedVersion: 2
        time: 0.24
        value: -0.26716846
        inSlope: 0
        outSlope: 0
        tangentMode: 136
      - serializedVersion: 2
        time: 0.66
        value: 0.48855639
        inSlope: -0.40184945
        outSlope: -0.40184945
        tangentMode: 0
      - serializedVersion: 2
        time: 0.8
        value: 0.1833416
        inSlope: -3.5081892
        outSlope: -3.5081892
        tangentMode: 0
      m_PreInfinity: 2
      m_PostInfinity: 2
      m_RotationOrder: 4
    attribute: m_LocalPosition.x
    path: ep4_NPC_BONES/ep4_NPC_LEG0.L_IK
    classID: 4
    script: {fileID: 0}
  - curve:
      serializedVersion: 2
      m_Curve:
      - serializedVersion: 2
        time: 0
        value: -1.672
        inSlope: 0
        outSlope: 0
        tangentMode: 136
      - serializedVersion: 2
        time: 0.3
        value: -1.642
        inSlope: 0.3000009
        outSlope: 0.3000009
        tangentMode: 136
      - serializedVersion: 2
        time: 0.4
        value: -1.5051343
        inSlope: 0
        outSlope: 0
        tangentMode: 136
      - serializedVersion: 2
        time: 0.5
        value: -1.529
        inSlope: -0.23865701
        outSlope: -0.23865701
        tangentMode: 136
      - serializedVersion: 2
        time: 0.8
        value: -1.672
        inSlope: 0
        outSlope: 0
        tangentMode: 136
      m_PreInfinity: 2
      m_PostInfinity: 2
      m_RotationOrder: 4
    attribute: m_LocalPosition.y
    path: ep4_NPC_BONES/ep4_NPC_LEG0.L_IK
    classID: 4
    script: {fileID: 0}
  - curve:
      serializedVersion: 2
      m_Curve:
      - serializedVersion: 2
        time: 0.3
        value: 0.119
        inSlope: 0
        outSlope: 0
        tangentMode: 136
      - serializedVersion: 2
        time: 0.4
        value: 0.12
        inSlope: 0
        outSlope: 0
        tangentMode: 136
      - serializedVersion: 2
        time: 0.6
        value: 0.086
        inSlope: -0.12000005
        outSlope: -0.12000005
        tangentMode: 136
      - serializedVersion: 2
        time: 0.7
        value: 0.077
        inSlope: 0
        outSlope: 0
        tangentMode: 136
      m_PreInfinity: 2
      m_PostInfinity: 2
      m_RotationOrder: 4
    attribute: m_LocalPosition.x
    path: ep4_NPC_BONES/ep4_NPC_LEG0.L_IK/ep4_NPC_FOOT.L_IK
    classID: 4
    script: {fileID: 0}
  - curve:
      serializedVersion: 2
      m_Curve:
      - serializedVersion: 2
        time: 0.3
        value: -0.013
        inSlope: 0
        outSlope: 0
        tangentMode: 136
      - serializedVersion: 2
        time: 0.4
        value: -0.04
        inSlope: 0
        outSlope: 0
        tangentMode: 136
      - serializedVersion: 2
        time: 0.6
        value: 0.05
        inSlope: 0
        outSlope: 0
        tangentMode: 136
      - serializedVersion: 2
        time: 0.8
        value: -0.01371279
        inSlope: 0
        outSlope: 0
        tangentMode: 136
      m_PreInfinity: 2
      m_PostInfinity: 2
      m_RotationOrder: 4
    attribute: m_LocalPosition.y
    path: ep4_NPC_BONES/ep4_NPC_LEG0.L_IK/ep4_NPC_FOOT.L_IK
    classID: 4
    script: {fileID: 0}
  - curve:
      serializedVersion: 2
      m_Curve:
      - serializedVersion: 2
        time: 0.3
        value: 0
        inSlope: 0
        outSlope: 0
        tangentMode: 136
      - serializedVersion: 2
        time: 0.4
        value: 0
        inSlope: 0
        outSlope: 0
        tangentMode: 136
      - serializedVersion: 2
        time: 0.6
        value: 0
        inSlope: 0
        outSlope: 0
        tangentMode: 136
      - serializedVersion: 2
        time: 0.7
        value: 0
        inSlope: 0
        outSlope: 0
        tangentMode: 136
      m_PreInfinity: 2
      m_PostInfinity: 2
      m_RotationOrder: 4
    attribute: m_LocalPosition.z
    path: ep4_NPC_BONES/ep4_NPC_LEG0.L_IK/ep4_NPC_FOOT.L_IK
    classID: 4
    script: {fileID: 0}
  - curve:
      serializedVersion: 2
      m_Curve:
      - serializedVersion: 2
        time: 0
        value: 0.093
        inSlope: 0
        outSlope: 0
        tangentMode: 136
      - serializedVersion: 2
        time: 0.1
        value: 0.159
        inSlope: 0.18000011
        outSlope: 0.18000011
        tangentMode: 136
      - serializedVersion: 2
        time: 0.2
        value: 0.168
        inSlope: 0
        outSlope: 0
        tangentMode: 136
      - serializedVersion: 2
        time: 0.3
        value: 0.154
        inSlope: 0
        outSlope: 0
        tangentMode: 136
      - serializedVersion: 2
        time: 0.4
        value: 0.176
        inSlope: 0
        outSlope: 0
        tangentMode: 136
      - serializedVersion: 2
        time: 0.6
        value: 0.174
        inSlope: 0
        outSlope: 0
        tangentMode: 136
      - serializedVersion: 2
        time: 0.7
        value: 0.174
        inSlope: 0
        outSlope: 0
        tangentMode: 136
      - serializedVersion: 2
        time: 0.8
        value: 0.093
        inSlope: 0
        outSlope: 0
        tangentMode: 136
      m_PreInfinity: 2
      m_PostInfinity: 2
      m_RotationOrder: 4
    attribute: m_LocalPosition.x
    path: ep4_NPC_BONES/ep4_NPC_LEG0.R_IK/ep4_NPC_FOOT.R_IK
    classID: 4
    script: {fileID: 0}
  - curve:
      serializedVersion: 2
      m_Curve:
      - serializedVersion: 2
        time: 0
        value: -0.153
        inSlope: 0
        outSlope: 0
        tangentMode: 136
      - serializedVersion: 2
        time: 0.1
        value: -0.079
        inSlope: 1.1400001
        outSlope: 1.1400001
        tangentMode: 136
      - serializedVersion: 2
        time: 0.2
        value: 0.075
        inSlope: 0.67999977
        outSlope: 0.67999977
        tangentMode: 136
      - serializedVersion: 2
        time: 0.3
        value: 0.109
        inSlope: 0
        outSlope: 0
        tangentMode: 136
      - serializedVersion: 2
        time: 0.4
        value: 0.026
        inSlope: -0.39666665
        outSlope: -0.39666665
        tangentMode: 136
      - serializedVersion: 2
        time: 0.6
        value: -0.01
        inSlope: -0.16666667
        outSlope: -0.16666667
        tangentMode: 136
      - serializedVersion: 2
        time: 0.7
        value: -0.024
        inSlope: -0.28
        outSlope: -0.28
        tangentMode: 136
      - serializedVersion: 2
        time: 0.8
        value: -0.153
        inSlope: 0
        outSlope: 0
        tangentMode: 136
      m_PreInfinity: 2
      m_PostInfinity: 2
      m_RotationOrder: 4
    attribute: m_LocalPosition.y
    path: ep4_NPC_BONES/ep4_NPC_LEG0.R_IK/ep4_NPC_FOOT.R_IK
    classID: 4
    script: {fileID: 0}
  - curve:
      serializedVersion: 2
      m_Curve:
      - serializedVersion: 2
        time: 0
        value: 0
        inSlope: 0
        outSlope: 0
        tangentMode: 136
      - serializedVersion: 2
        time: 0.1
        value: 0
        inSlope: 0
        outSlope: 0
        tangentMode: 136
      - serializedVersion: 2
        time: 0.2
        value: 0
        inSlope: 0
        outSlope: 0
        tangentMode: 136
      - serializedVersion: 2
        time: 0.3
        value: 0
        inSlope: 0
        outSlope: 0
        tangentMode: 136
      - serializedVersion: 2
        time: 0.4
        value: 0
        inSlope: 0
        outSlope: 0
        tangentMode: 136
      - serializedVersion: 2
        time: 0.6
        value: 0
        inSlope: 0
        outSlope: 0
        tangentMode: 136
      - serializedVersion: 2
        time: 0.7
        value: 0
        inSlope: 0
        outSlope: 0
        tangentMode: 136
      - serializedVersion: 2
        time: 0.8
        value: 0
        inSlope: 0
        outSlope: 0
        tangentMode: 136
      m_PreInfinity: 2
      m_PostInfinity: 2
      m_RotationOrder: 4
    attribute: m_LocalPosition.z
    path: ep4_NPC_BONES/ep4_NPC_LEG0.R_IK/ep4_NPC_FOOT.R_IK
    classID: 4
    script: {fileID: 0}
  - curve:
      serializedVersion: 2
      m_Curve:
      - serializedVersion: 2
        time: 0
        value: -4.315
        inSlope: 0
        outSlope: 0
        tangentMode: 136
      - serializedVersion: 2
        time: 0.2
        value: -8.783
        inSlope: 0
        outSlope: 0
        tangentMode: 136
      - serializedVersion: 2
        time: 0.4
        value: -4.901
        inSlope: 0
        outSlope: 0
        tangentMode: 136
      - serializedVersion: 2
        time: 0.6
        value: -8.776
        inSlope: 0
        outSlope: 0
        tangentMode: 136
      - serializedVersion: 2
        time: 0.8
        value: -4.315
        inSlope: 0
        outSlope: 0
        tangentMode: 136
      m_PreInfinity: 2
      m_PostInfinity: 2
      m_RotationOrder: 4
    attribute: localEulerAnglesRaw.z
    path: ep4_NPC_BONES/ep4_NPC_ROOT_bone/ep4_NPC_TORSO_bone/ep4_NPC_HEAD_bone
    classID: 4
    script: {fileID: 0}
  m_EulerEditorCurves: []
  m_HasGenericRootTransform: 0
  m_HasMotionFloatCurves: 0
  m_GenerateMotionCurves: 0
  m_Events: []
