%YAML 1.1
%TAG !u! tag:unity3d.com,2011:
--- !u!114 &11400000
MonoBehaviour:
  m_ObjectHideFlags: 0
  m_PrefabParentObject: {fileID: 0}
  m_PrefabInternal: {fileID: 0}
  m_GameObject: {fileID: 0}
  m_Enabled: 1
  m_EditorHideFlags: 0
  m_Script: {fileID: 11500000, guid: f2976b0b01981864b98da5a4a08de685, type: 3}
  m_Name: StickItem
  m_EditorClassIdentifier: 
  sprite: {fileID: 21300000, guid: 543a55283c5a309488a10cbf04827910, type: 3}
