[
	{
		"title": "Idrys",
		"tags": "",
		"body": "Sayla: Tato, tato! Przynioslam wode.\n<<MoveBucket>>\nBergeron: Jak ta mala tak szybko tu dotarla?\nIdrys: Widze ze najelas do tego naszego goscia.\nSayla: Bardzo pomogl.\nIdrys: Haha! Mam nadzieje ze sie nie forsujesz.\nBergeron: Bez obaw, czuje sie swietnie.\nIdrys: Ach! Dobrze to slyszec bo za dwa dni wyruszamy w droge.\nBergeron: Skoro o tym mowa. Nie moge z wami zostac.\nIdrys: Jak to?\nBergeron: Musze jechac do Kairu.\nIdrys: Hmm... Nie wiem co sie stalo, ale lepiej zebys odpuscil.\nPrawie zginales... Nie dam ci tak po prostu tego zmarnowac.\nBergeron: ...\nIdrys: Zastanow sie. Odpocznij...\nBergeron: Musze jechac.\nNie jestem pewien co sie dzieje, ale nie moge zostawic tak tej sprawy.\nIdrys: ...widze ze bardzo chcesz odejsc.\nNa wschod od oazy jest grobowiec. Powiem ludziom zeby cie przepuscili.\nBergeron: Co mam zrobic?\nIdrys: Udowodnij ze masz dosc sil.\nJesli poradzisz sobie wsrod sarkofagow, poradzisz sobie i na pustyni.\nGrobowiec chroni starozytny mechanizm.\nPrzynies mi skarb, to puszcze cie wolno.\nUwazaj na siebie.\n<<ChangeIdrysDialogueTent>><<MoveGuard1>><<MoveGuard2>><<ChangeGuardPopup1>><<ChangeGuardPopup2>><<DisableDaughterDialogue>><<MoveTriggerMusicPath>>",
		"position": {
			"x": -165,
			"y": -53
		},
		"colorID": 1
	},
	{
		"title": "Idrys.DostalemWGlowe",
		"tags": "",
		"body": "Bergeron: Jakis typ na drodze rzucal kamieniami w wielblady.\nBeduin1: Achaaaa\nBergeron: Moj oberwal w tylek i uciekl.\nBeduin1: I co bylo dalej?\nBergeron: Ja spadlem glowa na kamien.\nBeduin1: I co bylo dalej?\nBergeron: I mnie zamroczylo.\nBeduin1: I co bylo dalej?\n[[Nic, narka|Koniec]]\n\n",
		"position": {
			"x": -204,
			"y": 259
		},
		"colorID": 0
	},
	{
		"title": "Start",
		"tags": "",
		"body": "Beduin w masce: Eala'an ladayh qitat walqat ladayh albiarat!\nBeduin: 'Ant ealaa haqin , 'Iidris.\nBeduin w masce: 'Aeud 'iilaa aleaml.\nBeduin w masce: Mozesz mowic? Jak masz na imie?\nBergeron: ...\nBeduin w masce: Jestem Idrys, wodz tego plemienia.\nBergeron: Bylem ranny i postanowiliscie mnie wyleczyc, dlaczego?\nIdrys: Tak. Pomagamy ludziom w potrzebie.\nBergeron: Dziekuje. Jestem Bernard Bergeron.\nIdrys: Bernard. Milo cie poznac. Niewiele brakowalo, a bylbys juz u Allaha.\nBergeron: Dokad udal sie czlowiek ktory to zrobil?\nIdrys: Kieruje sie do Kairu. Zmierzamy w przeciwna strone wiec bedziesz z nami bezpieczny.\nBergeron: ...Musze dostac sie do Kairu.\nIdrys: Jestes jeszcze zbyt slaby.\n<<MoveIdrysTent>>",
		"position": {
			"x": 242,
			"y": 253
		},
		"colorID": 0
	},
	{
		"title": "Koniec",
		"tags": "",
		"body": "<<moveBeduin>>",
		"position": {
			"x": 242,
			"y": 253
		},
		"colorID": 0
	},
	{
		"title": "BeduinMale",
		"tags": "",
		"body": "Hal tuhibb an tarqus.",
		"position": {
			"x": 617,
			"y": -15
		},
		"colorID": 0
	},
	{
		"title": "BeduinAqil",
		"tags": "",
		"body": "Wybacz, ale mam co robic.",
		"position": {
			"x": 617,
			"y": -15
		},
		"colorID": 0
	},
	{
		"title": "BergeronPopup",
		"tags": "",
		"body": "Ciekawe co jest w tych skrzyniach.",
		"position": {
			"x": 617,
			"y": -15
		},
		"colorID": 0
	},
	{
		"title": "BergeronPopup1",
		"tags": "",
		"body": "Jedno z niewielu zrodel wody na pustyni. Nie dziwie sie ze wybrali to miejsce.",
		"position": {
			"x": 617,
			"y": -15
		},
		"colorID": 0
	},
	{
		"title": "BergeronPopup2",
		"tags": "",
		"body": "Wyjscie z oazy. Zamkniete...",
		"position": {
			"x": 617,
			"y": -15
		},
		"colorID": 0
	},
	{
		"title": "BergeronPopup3",
		"tags": "",
		"body": "To starozytny grobowiec, ciekawe co mnie tam czeka.",
		"position": {
			"x": 617,
			"y": -15
		},
		"colorID": 0
	},
	{
		"title": "BergeronPopup4",
		"tags": "",
		"body": "Musze znalezc wlasciwa kombinacje. Zla zresetuje mechanizm.",
		"position": {
			"x": 617,
			"y": -15
		},
		"colorID": 0
	},
	{
		"title": "BergeronPopup5",
		"tags": "",
		"body": "Musze sie pospieszyc, morderca pewnie jest juz daleko.",
		"position": {
			"x": 617,
			"y": -15
		},
		"colorID": 0
	},
	{
		"title": "Krzak",
		"tags": "",
		"body": "Goraco dzis, co? Moze napij sie wody.\n<<ChangeKrzakPopup>><<ChangeKrzakBeduinPopup>>",
		"position": {
			"x": 617,
			"y": -15
		},
		"colorID": 0
	},
	{
		"title": "KrzakNew",
		"tags": "",
		"body": "Wybacz kolego, ale mnie tez gonia wazne sprawy.\n<<ChangeKrzakBeduinPopup>>",
		"position": {
			"x": 617,
			"y": -15
		},
		"colorID": 0
	},
	{
		"title": "BeduinFemale",
		"tags": "",
		"body": "Lugha wanidah la takfi.",
		"position": {
			"x": 340,
			"y": -53
		},
		"colorID": 0
	},
	{
		"title": "BeduinMale1",
		"tags": "",
		"body": "Ayn al-hammam?",
		"position": {
			"x": 617,
			"y": -15
		},
		"colorID": 0
	},
	{
		"title": "BeduinMale2",
		"tags": "",
		"body": "Allah Yakhthek.",
		"position": {
			"x": 617,
			"y": -15
		},
		"colorID": 0
	},
	{
		"title": "BeduinMale3",
		"tags": "",
		"body": "Hawwamti mumtil'ah bi'anqalaysun.",
		"position": {
			"x": 617,
			"y": -15
		},
		"colorID": 0
	},
	{
		"title": "Daughter",
		"tags": "",
		"body": "Sayla: Prosze Pana!\nBergeron: Co sie stalo?\nSayla: Moze mi Pan pomoc? Tata potrzebowal wody z oazy, wiec powiedzialam ze mu ja przyniose!\nAle jest dla mnie za ciezka...\n<<DisableDaughterDialogue>>",
		"position": {
			"x": 621,
			"y": 259
		},
		"colorID": 0
	},
	{
		"title": "DaughterPopup",
		"tags": "",
		"body": "Jesli pojdzie Pan dalej, na pewno Pan trafi.",
		"position": {
			"x": 621,
			"y": 259
		},
		"colorID": 0
	},
	{
		"title": "BeduinFemaleField",
		"tags": "",
		"body": "As-salaam'alaykum!",
		"position": {
			"x": 340,
			"y": -53
		},
		"colorID": 0
	},
	{
		"title": "IdrysPopup",
		"tags": "",
		"body": "Idz juz.",
		"position": {
			"x": 89,
			"y": -78
		},
		"colorID": 0
	},
	{
		"title": "IdrysPopupWielblad",
		"tags": "",
		"body": "Badz zdrow i niech Allah ma cie w swej opiece.\n<<ChangeIdrysPopupWielblad1>>",
		"position": {
			"x": 89,
			"y": -78
		},
		"colorID": 0
	},
	{
		"title": "IdrysPopupWielblad1",
		"tags": "",
		"body": "Czas na ciebie.\n<<ChangeIdrysPopupWielblad2>>",
		"position": {
			"x": 89,
			"y": -78
		},
		"colorID": 0
	},
	{
		"title": "IdrysPopupWielblad2",
		"tags": "",
		"body": "Jedz juz.",
		"position": {
			"x": 89,
			"y": -78
		},
		"colorID": 0
	},
	{
		"title": "BeduinFemale1",
		"tags": "",
		"body": "Hal tatakallam al-lughah al-arabiyah?",
		"position": {
			"x": 340,
			"y": -53
		},
		"colorID": 0
	},
	{
		"title": "BeduinFemale2",
		"tags": "",
		"body": "Masaa' al-khayr.",
		"position": {
			"x": 340,
			"y": -53
		},
		"colorID": 0
	},
	{
		"title": "BeduinMaleKrzak",
		"tags": "",
		"body": "Spotkales juz Krzaczyslawa? Jest taki piekny...",
		"position": {
			"x": 340,
			"y": -53
		},
		"colorID": 0
	},
	{
		"title": "IdrysStatuetka",
		"tags": "",
		"body": "Idrys: Bergeron!\n<<MoveStatue>>\nBergeron: Wrocilem ze statuetka.\n... Nie bede mieszac sie w decyzje czlowieka, ktoremu sprzyja opatrznosc.\nIdz do ogrodzenia obok mojego namiotu, otworzymy dla ciebie przejscie.\n<<ChangeIdrysDialogueFarewell>>\n<<MoveIdrysFarewell>><<ChangeIdrysDialogueFarewell>><<MoveFence1>><<MoveFence2>><<ChangeKrzakPopup>><<ChangeKrzakBeduinPopup>><<MoveTriggerAway>>",
		"position": {
			"x": -607,
			"y": -46
		},
		"colorID": 0
	},
	{
		"title": "IdrysWielblad",
		"tags": "",
		"body": "\"Widze ze moj wielblad parowy ocalal\"\n<<MoveFenceBack1>><<MoveFenceBack2>>\nIdrys: Przygotowalem dla ciebie troche prowiantu i wody.\nBergeron: Dziekuje.\nIdrys: Kair jest cale dwa dni drogi stad.\nBergeron: Skad wiesz ze napastnik pojechal do Kairu?\nIdrys: Slady na piasku.\nBergeron: Hmm...\nIdrys: Zamierzasz go szukac, co?\nNiech bedzie... W takim razie powinienes to wziac.\nZnalezlismy je kolo sladow.\nBergeron: Pudelko zapalek?\n\"Hotel Oasis. Cenna wskazowka.\"\nIdrys: Coz Bergeron, uwazaj na siebie.\nCokolwiek planujesz, powodzenia.\nBierz wielblada i ruszaj w droge.\nBergeron: Dzieki za wszystko. Zegnajcie.\nIdrys: Niech Bog cie prowadzi.\n<<ChangeIdrysPopupWielbladDis>><<ChangeIdrysPopupWielblad>>\n<<EnableCamel>>",
		"position": {
			"x": -606,
			"y": -46
		},
		"colorID": 0
	},
	{
		"title": "BeduinGuardPre1",
		"tags": "",
		"body": "Nie mozesz tam isc.",
		"position": {
			"x": 617,
			"y": -15
		},
		"colorID": 0
	},
	{
		"title": "BeduinGuardPost1",
		"tags": "",
		"body": "Nie zawiedz nas.",
		"position": {
			"x": 617,
			"y": -15
		},
		"colorID": 0
	},
	{
		"title": "BeduinGuardPre2",
		"tags": "",
		"body": "Idrys zabronil tam chodzic.",
		"position": {
			"x": 617,
			"y": -15
		},
		"colorID": 0
	},
	{
		"title": "BeduinGuardPost2",
		"tags": "",
		"body": "Mozesz przejsc.",
		"position": {
			"x": 617,
			"y": -15
		},
		"colorID": 0
	},
	{
		"title": "BeduinMaleFarewell",
		"tags": "",
		"body": "Ahlan wa sahlan!",
		"position": {
			"x": 617,
			"y": -15
		},
		"colorID": 0
	},
	{
		"title": "Wielblad",
		"tags": "",
		"body": "Czy podobnie jak Idrys lubisz mieso wielbladow?\n-> Tak\n-> Nie\n<<IdrysNewPopup>>",
		"position": {
			"x": -928,
			"y": 161
		},
		"colorID": 0
	}
]