{
	"refobject": "bookstand",
	"game_item":true,
	"actions": 
	[
    {
      "order": 1,
      "max_distance": 3.0,
      "play_sfx": 0,
      "tell_player": "ZAPOMNIANA CYWILIZACJA - Robert Schoch"
    }
	]
}