{
	"refobject": "bookstand",
	"game_item":true,
	"actions": 
	[
    {
      "order": 1,
      "max_distance": 3.0,
      "play_sound": "knock",
      "tell_player": "MITOLOGIA STAROŻYTNEGO EGIPTU, WIERZENIA EGIPCJAN, ZNACZENIE SYMBOLI EGIPSKICH. \nWszystkie pozycje związane z tutejsza kulturą."
    }
	]
}