{
	"refobject": "door",
	"game_item":true,
	"actions": 
	[
    {
      "order": 1,
      "max_distance": 3.0,
      "tell_player": "Lili, jesteś w środku? Mogę wejść?",
      "operation": "goto scene",
      "data": "ep2_s2v2",
      "play_sfx":0
    }
	]
}