{
	"refobject": "journal",
	"game_item":true,
  "actions": 
  [
    {
      "order": 1,
      "max_distance": 5.0,
      "action": "talk",
      "operation":"discussion",
      "remove_tags": [ "find_journal"],
      "tell_player": "Nie wiedziałem, że Pierre prowadził dziennik, może znajdę tu coś przydatnego",
      "data": "27.04"
    }
  ],  
  "discussions": 
  [
    {
      "discussion_step": "27.04",
      "first": "hero",
      "hero_side": "\n27.04\nTo niesamowite, ten kupiec mówił prawdą. Przes tysiąclecia prawda była skrywana. Jeżeli dobrze pójdzie \nto w ciągu kilku dni uzyskam potwierdzenie co do amuletu. Muszę tylko znaleźć tą ksiązkę.",
      "next_step": "02.05"
    },
    {
      "discussion_step": "02.05",
      "first": "hero",
      "hero_side": "\n02.05\nKolejny dzień z rzędu byłem w bibliotece, tych ksiąg jest tysiące. \nPowoli tracę nadzieję. Może za bardzo uwierzyłem, że dokonam przełomowego odkrycia... \n Cały czas mam też wrażenie, że ktoś za mną chodzi i mnie obserwuje. Może jestem przemęczony, \nmoże za dużo myślę?",
      "next_step": "09.05"
    },
    {
      "discussion_step": "09.05",
      "add_tags": [ "has_journal" ],
      "get_item": true,
      "play_sound": "knock",
      "first": "hero",
      "hero_side": "\n09.05\nTak! W końcu! Dzisiaj znalazłem to czego szukałem, jestem prawie pewien, że amulet który mam to Amulet Ra! \nMuszę przeprowadzić rytuał, a wtedy wszystko będzie jasne.\nDzisiaj już jestem pewien, że ktoś mnie śledził, muszę być bardziej ostrożny.",
      "next_step": "discussion_end"
    }

  ]
}