{
	"refobject": "signet",
	"game_item":true,
	"actions": 
	[
		{
			"order":1,
			"max_distance":2.0,
			"action":"tell",
			"comment":"Sygnet! Ciekawe co on tu robi, Pierre nigdy się z nim nie rozstawał.\nJest to najwspanialsza pamiątka jaka została nam po ukończniu Uniwersytetu.\nNależeliśmy do Piątki Phoenixa, elitarnego klubu zrzeszającego najelpszych studentów.\nTo były czasy... do teraz zastanawiam się jak nam się to udało.\n Z Twoją śmiercią nasze grono znowu się zmniejsza.",
			"tell_player":"Poszukam dalej, może znajdę coś co naprowadzi mnie na odpowiedni trop."
		}
	]
}