{
	"refobject": "wife",
  "npc_skin":6,
  "npc_active":true,
	"start_game_tags": ["wife_talk", "hasnot_key"],
  "action_on_load":100,
  "actions": [
    {
      "order": 1,
      "action": "talk",
      "exists_tags": [ "wife_talk" ],
      "operation": "discussion",
      "disable_gameobjects":["/InteractiveColliders/Cry"],
      "data": "discussion_intro"
    },
    {
      "order": 2,
      "action": "talk",
      "exists_tags": [ "has_key" ],
      "comment": "Teraz mogę otworzyć drzwi.",
      "tell_player": "Przeszukam gabinet, zobaczymy nad czym Pracował Pierr",
      "operation": "discussion",
      "data": "discussion_intro"
    },
    {
      "order": 3,
      "action": "talk",
      "exists_tags": [ "has_journal", "has_notes"],
      "operation": "discussion",
      "data": "dialogue2_wife"
    },
    {
      "order": 5,
      "action": "talk",
      "exists_tags": ["has_letter"],
      "operation": "discussion",
      "data": "dialogue6_wife"
    },
    { "order":99 },
     {
      "order":100,
      "exists_tags": [ "letter_on_floor" ],
      "enable_gameobjects":["/GameItems/letter"]
    }
  ],
  "discussions": [
    {
      "discussion_step": "discussion_intro",
      "first": "hero",
      "hero_side": "Witaj Lili! Nawet nie wiesz jak jest mi przykro... Właśnie wracam z miejsc wypadku.",
      "npc_side": "Dziekuję. \nNie mogę uwierzyć, że już go nie ma... \nWczoraj wieczorem rozmawialiśmy i trochę się posprzeczaliśmy...",
      "next_step": "discussion_hello"
    },
    {
      "discussion_step": "discussion_hello",
      "first": "hero",
      "hero_ask": [
        {
          "option": "O czym rozmawialiście?",
          "next_step": "discussion_friend"
        },
        {
          "option": "Nie mogłaś tego przewidzieć, takie rzeczy się zdarzają.",
          "next_step": "discussion_hello"
        }
      ]
    },
    {
      "discussion_step": "discussion_friend",
      "first": "npc",
      "npc_side": "Poszło o te jego dziwactwa. \nOdkąd tu przyjechaliśmy to cały czas chodził do biblioteki i wieczorami zamykał się w swoim gabinecie... \nmiałam już tego dość, chciałam z nim po prostu porozmawiać o zwyczajnych rzeczach.",
      "next_step": "discussion_questions"
    },
    {
      "discussion_step": "discussion_questions",
      "hero_ask": [
        {
          "option": "To nie Twoja wina, nie zadręczaj się.",
          "next_step": "discussion_answer1"
        },
        {
          "option": "Czy mogę zobaczyć gabinet Pierra?",
          "next_step": "allow_explore_Pierre_room"
        },
        {
          "option": "Czasami tak bywa, nie mamy na wszystko wpływu.",
          "next_step": "discussion_answer2"
        }
      ]
    },
    {
      "discussion_step": "discussion_answer1",
      "first": "npc",
      "npc_side": "Może gdybym wcześniej komuś powiedziała...",
      "next_step": "discussion_questions"
    },
    {
      "discussion_step": "discussion_answer2",
      "first": "npc",
      "npc_side": "Myślę, że mogłam zrobić coś więcej.",
      "next_step": "discussion_questions"
    },
    {
      "discussion_step": "allow_explore_Pierre_room",
      "first": "npc",
      "npc_side": "Tak, proszę bardzo. Tu jest zapasowy klucz. \nPierre zamkął gabinet gdy wychodził.",
      "hero_side": "Dziękuję. Rozejrzę się trochę.",
      "next_step": "discussion_end",
      "add_tags": [ "has_key" ],
      "remove_tags":["wife_talk","hasnot_key"]
    },
    {
      "discussion_step": "dialogue2_wife",
      "first": "npc",
      "npc_side": "Znalazłeś coś?",
      "hero_side": "Czy ktoś poza mną był jeszcze w tym gabinecie?",
      "next_step": "dialogue3_wife"
    },
    {
      "discussion_step": "dialogue3_wife",
      "first": "npc",
      "npc_side": "Gabinet cały czas był zamknięty. Pierre nikogo tam nie wpuszczał, nawet mnie.",
      "hero_side": "Hmm... Czy Pierre mówił Ci o czymś nadzwyczajnym?",
      "next_step": "dialogue4_wife"
    },
    {
      "discussion_step": "dialogue4_wife",
      "first": "npc",
      "npc_side": "Nie przypominam sobie... \nchociaż kilka dni temu wspominał, że ma wrażenie, że cały czas jest obserwowany, \nza każdym razem kazał zamykać mi drzwi jak zostawałam w domu.",
      "hero_side": "Ta cała sprawa robi się coraz bardziej zagmatwana... \nzaczynam podejrzewać, że śmierć Pierra to wcale nie był wypadek",
      "next_step": "dialogue5_wife"
    },
    {
      "discussion_step": "dialogue5_wife",
      "first": "npc",
      "npc_side": "Jak to? O czym Ty mówisz? Kto chciałby zrobić mu krzywdę?",
      "hero_side": "Im dłużej się zastanawiam, tym bardziej wydaje mi się, że ktoś to zaplanował. \nNa miejscu śmierci każdy dowód był tam gdzie powinien być, tak jakby ktoś chciał abybśmy uwierzyli w wypadek.\nW gabinecie znalazłem dziennik, w którym Pierre pisał o swoich poszukiwaniach, chodziło o Amulet Ra.\nZnalazłem też opis jakiegoś rytuału, do którego potrzebny jest amulet.\nW ostatnich wspisach wspomniał też, że ktoś go śledzi.",
      "next_step": "discussion_letter"
    },
    {
      "discussion_step": "discussion_letter",
      "first": "npc",
      "npc_side": "[puk, puk, puk]",
      "play_sfx": 0,
      "enable_gameobjects":["/GameItems/letter"],
      "add_tags":["letter_on_floor"],
      "next_step": "discussion_end"
    },
    {
      "discussion_step": "dialogue6_wife",
      "first": "npc",
      "npc_side": "Kto to był. Czego chciał?",
      "hero_side": "Ktoś przyniósł list.",
      "next_step": "dialogue7_wife"
    },
    {
      "discussion_step": "dialogue7_wife",
      "first": "npc",
      "npc_side": "Jaki list? Do Ciebie?",
      "hero_side": "Tak, jest w nim napisane, że jak najszybciej mam udać się do Oazy.\nTam mam dowiedzieć się więcej na temat śmierci Pierra. Wyruszam natychmiast.",
      "next_step": "discussion_end"
    }
  ]
	
}