%YAML 1.1
%TAG !u! tag:unity3d.com,2011:
--- !u!1001 &100100000
Prefab:
  m_ObjectHideFlags: 1
  serializedVersion: 2
  m_Modification:
    m_TransformParent: {fileID: 0}
    m_Modifications: []
    m_RemovedComponents: []
  m_ParentPrefab: {fileID: 0}
  m_RootGameObject: {fileID: 1742919739228656}
  m_IsPrefabParent: 1
--- !u!1 &1521936226237668
GameObject:
  m_ObjectHideFlags: 0
  m_PrefabParentObject: {fileID: 0}
  m_PrefabInternal: {fileID: 100100000}
  serializedVersion: 5
  m_Component:
  - component: {fileID: 4170126631709702}
  - component: {fileID: 8195094280603943758}
  - component: {fileID: 3664157344651363708}
  m_Layer: 31
  m_Name: Layer1
  m_TagString: Untagged
  m_Icon: {fileID: 0}
  m_NavMeshLayer: 0
  m_StaticEditorFlags: 0
  m_IsActive: 1
--- !u!1 &1742919739228656
GameObject:
  m_ObjectHideFlags: 0
  m_PrefabParentObject: {fileID: 0}
  m_PrefabInternal: {fileID: 100100000}
  serializedVersion: 5
  m_Component:
  - component: {fileID: 4985616740663640}
  - component: {fileID: 2569400266323763066}
  m_Layer: 31
  m_Name: ep3_puzzle&tomb
  m_TagString: Untagged
  m_Icon: {fileID: 0}
  m_NavMeshLayer: 0
  m_StaticEditorFlags: 0
  m_IsActive: 1
--- !u!4 &4170126631709702
Transform:
  m_ObjectHideFlags: 1
  m_PrefabParentObject: {fileID: 0}
  m_PrefabInternal: {fileID: 100100000}
  m_GameObject: {fileID: 1521936226237668}
  m_LocalRotation: {x: -0, y: -0, z: -0, w: 1}
  m_LocalPosition: {x: 0, y: 0, z: 0}
  m_LocalScale: {x: 1, y: 1, z: 1}
  m_Children: []
  m_Father: {fileID: 4985616740663640}
  m_RootOrder: 0
  m_LocalEulerAnglesHint: {x: 0, y: 0, z: 0}
--- !u!4 &4985616740663640
Transform:
  m_ObjectHideFlags: 1
  m_PrefabParentObject: {fileID: 0}
  m_PrefabInternal: {fileID: 100100000}
  m_GameObject: {fileID: 1742919739228656}
  m_LocalRotation: {x: 0, y: 0, z: 0, w: 1}
  m_LocalPosition: {x: 0, y: 0, z: 0}
  m_LocalScale: {x: 1, y: 1, z: 1}
  m_Children:
  - {fileID: 4170126631709702}
  m_Father: {fileID: 0}
  m_RootOrder: 0
  m_LocalEulerAnglesHint: {x: 0, y: 0, z: 0}
--- !u!114 &114334914963146840
MonoBehaviour:
  m_ObjectHideFlags: 0
  m_PrefabParentObject: {fileID: 0}
  m_PrefabInternal: {fileID: 0}
  m_GameObject: {fileID: 0}
  m_Enabled: 1
  m_EditorHideFlags: 1
  m_Script: {fileID: 12395, guid: 0000000000000000e000000000000000, type: 0}
  m_Name: Palette Settings
  m_EditorClassIdentifier: 
  cellSizing: 0
--- !u!156049354 &2569400266323763066
Grid:
  m_ObjectHideFlags: 1
  m_PrefabParentObject: {fileID: 0}
  m_PrefabInternal: {fileID: 100100000}
  m_GameObject: {fileID: 1742919739228656}
  m_Enabled: 1
  m_CellSize: {x: 1, y: 1, z: 0}
  m_CellGap: {x: 0, y: 0, z: 0}
  m_CellLayout: 0
  m_CellSwizzle: 0
--- !u!483693784 &3664157344651363708
TilemapRenderer:
  m_ObjectHideFlags: 1
  m_PrefabParentObject: {fileID: 0}
  m_PrefabInternal: {fileID: 100100000}
  m_GameObject: {fileID: 1521936226237668}
  m_Enabled: 0
  m_CastShadows: 0
  m_ReceiveShadows: 0
  m_DynamicOccludee: 0
  m_MotionVectors: 1
  m_LightProbeUsage: 0
  m_ReflectionProbeUsage: 0
  m_Materials:
  - {fileID: 10754, guid: 0000000000000000f000000000000000, type: 0}
  m_StaticBatchInfo:
    firstSubMesh: 0
    subMeshCount: 0
  m_StaticBatchRoot: {fileID: 0}
  m_ProbeAnchor: {fileID: 0}
  m_LightProbeVolumeOverride: {fileID: 0}
  m_ScaleInLightmap: 1
  m_PreserveUVs: 0
  m_IgnoreNormalsForChartDetection: 0
  m_ImportantGI: 0
  m_StitchLightmapSeams: 0
  m_SelectedEditorRenderState: 0
  m_MinimumChartSize: 4
  m_AutoUVMaxDistance: 0.5
  m_AutoUVMaxAngle: 89
  m_LightmapParameters: {fileID: 0}
  m_SortingLayerID: 0
  m_SortingLayer: 0
  m_SortingOrder: 0
  m_ChunkSize: {x: 32, y: 32, z: 32}
  m_MaxChunkCount: 16
  m_MaxFrameAge: 16
  m_SortOrder: 0
  m_MaskInteraction: 0
--- !u!1839735485 &8195094280603943758
Tilemap:
  m_ObjectHideFlags: 1
  m_PrefabParentObject: {fileID: 0}
  m_PrefabInternal: {fileID: 100100000}
  m_GameObject: {fileID: 1521936226237668}
  m_Enabled: 1
  m_Tiles:
  - first: {x: -4, y: -9, z: 0}
    second:
      m_TileIndex: 28
      m_TileSpriteIndex: 28
      m_TileMatrixIndex: 0
      m_TileColorIndex: 0
      m_ObjectToInstantiate: {fileID: 0}
      m_TileFlags: 1
      m_ColliderType: 1
  - first: {x: -3, y: -9, z: 0}
    second:
      m_TileIndex: 30
      m_TileSpriteIndex: 30
      m_TileMatrixIndex: 0
      m_TileColorIndex: 0
      m_ObjectToInstantiate: {fileID: 0}
      m_TileFlags: 1
      m_ColliderType: 1
  - first: {x: -2, y: -9, z: 0}
    second:
      m_TileIndex: 31
      m_TileSpriteIndex: 31
      m_TileMatrixIndex: 0
      m_TileColorIndex: 0
      m_ObjectToInstantiate: {fileID: 0}
      m_TileFlags: 1
      m_ColliderType: 1
  - first: {x: -4, y: -8, z: 0}
    second:
      m_TileIndex: 26
      m_TileSpriteIndex: 26
      m_TileMatrixIndex: 0
      m_TileColorIndex: 0
      m_ObjectToInstantiate: {fileID: 0}
      m_TileFlags: 1
      m_ColliderType: 1
  - first: {x: -3, y: -8, z: 0}
    second:
      m_TileIndex: 27
      m_TileSpriteIndex: 27
      m_TileMatrixIndex: 0
      m_TileColorIndex: 0
      m_ObjectToInstantiate: {fileID: 0}
      m_TileFlags: 1
      m_ColliderType: 1
  - first: {x: -2, y: -8, z: 0}
    second:
      m_TileIndex: 32
      m_TileSpriteIndex: 32
      m_TileMatrixIndex: 0
      m_TileColorIndex: 0
      m_ObjectToInstantiate: {fileID: 0}
      m_TileFlags: 1
      m_ColliderType: 1
  - first: {x: -4, y: -7, z: 0}
    second:
      m_TileIndex: 25
      m_TileSpriteIndex: 25
      m_TileMatrixIndex: 0
      m_TileColorIndex: 0
      m_ObjectToInstantiate: {fileID: 0}
      m_TileFlags: 1
      m_ColliderType: 1
  - first: {x: -3, y: -7, z: 0}
    second:
      m_TileIndex: 23
      m_TileSpriteIndex: 23
      m_TileMatrixIndex: 0
      m_TileColorIndex: 0
      m_ObjectToInstantiate: {fileID: 0}
      m_TileFlags: 1
      m_ColliderType: 1
  - first: {x: -2, y: -7, z: 0}
    second:
      m_TileIndex: 29
      m_TileSpriteIndex: 29
      m_TileMatrixIndex: 0
      m_TileColorIndex: 0
      m_ObjectToInstantiate: {fileID: 0}
      m_TileFlags: 1
      m_ColliderType: 1
  - first: {x: -4, y: -5, z: 0}
    second:
      m_TileIndex: 18
      m_TileSpriteIndex: 18
      m_TileMatrixIndex: 0
      m_TileColorIndex: 0
      m_ObjectToInstantiate: {fileID: 0}
      m_TileFlags: 1
      m_ColliderType: 1
  - first: {x: -3, y: -5, z: 0}
    second:
      m_TileIndex: 19
      m_TileSpriteIndex: 19
      m_TileMatrixIndex: 0
      m_TileColorIndex: 0
      m_ObjectToInstantiate: {fileID: 0}
      m_TileFlags: 1
      m_ColliderType: 1
  - first: {x: -2, y: -5, z: 0}
    second:
      m_TileIndex: 20
      m_TileSpriteIndex: 20
      m_TileMatrixIndex: 0
      m_TileColorIndex: 0
      m_ObjectToInstantiate: {fileID: 0}
      m_TileFlags: 1
      m_ColliderType: 1
  - first: {x: 1, y: -5, z: 0}
    second:
      m_TileIndex: 24
      m_TileSpriteIndex: 24
      m_TileMatrixIndex: 0
      m_TileColorIndex: 0
      m_ObjectToInstantiate: {fileID: 0}
      m_TileFlags: 1
      m_ColliderType: 1
  - first: {x: -4, y: -4, z: 0}
    second:
      m_TileIndex: 15
      m_TileSpriteIndex: 15
      m_TileMatrixIndex: 0
      m_TileColorIndex: 0
      m_ObjectToInstantiate: {fileID: 0}
      m_TileFlags: 1
      m_ColliderType: 1
  - first: {x: -3, y: -4, z: 0}
    second:
      m_TileIndex: 17
      m_TileSpriteIndex: 17
      m_TileMatrixIndex: 0
      m_TileColorIndex: 0
      m_ObjectToInstantiate: {fileID: 0}
      m_TileFlags: 1
      m_ColliderType: 1
  - first: {x: -2, y: -4, z: 0}
    second:
      m_TileIndex: 16
      m_TileSpriteIndex: 16
      m_TileMatrixIndex: 0
      m_TileColorIndex: 0
      m_ObjectToInstantiate: {fileID: 0}
      m_TileFlags: 1
      m_ColliderType: 1
  - first: {x: 0, y: -4, z: 0}
    second:
      m_TileIndex: 22
      m_TileSpriteIndex: 22
      m_TileMatrixIndex: 0
      m_TileColorIndex: 0
      m_ObjectToInstantiate: {fileID: 0}
      m_TileFlags: 1
      m_ColliderType: 1
  - first: {x: -4, y: -3, z: 0}
    second:
      m_TileIndex: 12
      m_TileSpriteIndex: 12
      m_TileMatrixIndex: 0
      m_TileColorIndex: 0
      m_ObjectToInstantiate: {fileID: 0}
      m_TileFlags: 1
      m_ColliderType: 1
  - first: {x: -3, y: -3, z: 0}
    second:
      m_TileIndex: 13
      m_TileSpriteIndex: 13
      m_TileMatrixIndex: 0
      m_TileColorIndex: 0
      m_ObjectToInstantiate: {fileID: 0}
      m_TileFlags: 1
      m_ColliderType: 1
  - first: {x: -2, y: -3, z: 0}
    second:
      m_TileIndex: 14
      m_TileSpriteIndex: 14
      m_TileMatrixIndex: 0
      m_TileColorIndex: 0
      m_ObjectToInstantiate: {fileID: 0}
      m_TileFlags: 1
      m_ColliderType: 1
  - first: {x: 0, y: -3, z: 0}
    second:
      m_TileIndex: 21
      m_TileSpriteIndex: 21
      m_TileMatrixIndex: 0
      m_TileColorIndex: 0
      m_ObjectToInstantiate: {fileID: 0}
      m_TileFlags: 1
      m_ColliderType: 1
  - first: {x: -4, y: -1, z: 0}
    second:
      m_TileIndex: 2
      m_TileSpriteIndex: 2
      m_TileMatrixIndex: 0
      m_TileColorIndex: 0
      m_ObjectToInstantiate: {fileID: 0}
      m_TileFlags: 1
      m_ColliderType: 1
  - first: {x: -3, y: -1, z: 0}
    second:
      m_TileIndex: 3
      m_TileSpriteIndex: 3
      m_TileMatrixIndex: 0
      m_TileColorIndex: 0
      m_ObjectToInstantiate: {fileID: 0}
      m_TileFlags: 1
      m_ColliderType: 1
  - first: {x: -2, y: -1, z: 0}
    second:
      m_TileIndex: 6
      m_TileSpriteIndex: 6
      m_TileMatrixIndex: 0
      m_TileColorIndex: 0
      m_ObjectToInstantiate: {fileID: 0}
      m_TileFlags: 1
      m_ColliderType: 1
  - first: {x: -1, y: -1, z: 0}
    second:
      m_TileIndex: 7
      m_TileSpriteIndex: 7
      m_TileMatrixIndex: 0
      m_TileColorIndex: 0
      m_ObjectToInstantiate: {fileID: 0}
      m_TileFlags: 1
      m_ColliderType: 1
  - first: {x: 0, y: -1, z: 0}
    second:
      m_TileIndex: 10
      m_TileSpriteIndex: 10
      m_TileMatrixIndex: 0
      m_TileColorIndex: 0
      m_ObjectToInstantiate: {fileID: 0}
      m_TileFlags: 1
      m_ColliderType: 1
  - first: {x: 1, y: -1, z: 0}
    second:
      m_TileIndex: 11
      m_TileSpriteIndex: 11
      m_TileMatrixIndex: 0
      m_TileColorIndex: 0
      m_ObjectToInstantiate: {fileID: 0}
      m_TileFlags: 1
      m_ColliderType: 1
  - first: {x: -4, y: 0, z: 0}
    second:
      m_TileIndex: 0
      m_TileSpriteIndex: 0
      m_TileMatrixIndex: 0
      m_TileColorIndex: 0
      m_ObjectToInstantiate: {fileID: 0}
      m_TileFlags: 1
      m_ColliderType: 1
  - first: {x: -3, y: 0, z: 0}
    second:
      m_TileIndex: 1
      m_TileSpriteIndex: 1
      m_TileMatrixIndex: 0
      m_TileColorIndex: 0
      m_ObjectToInstantiate: {fileID: 0}
      m_TileFlags: 1
      m_ColliderType: 1
  - first: {x: -2, y: 0, z: 0}
    second:
      m_TileIndex: 4
      m_TileSpriteIndex: 4
      m_TileMatrixIndex: 0
      m_TileColorIndex: 0
      m_ObjectToInstantiate: {fileID: 0}
      m_TileFlags: 1
      m_ColliderType: 1
  - first: {x: -1, y: 0, z: 0}
    second:
      m_TileIndex: 5
      m_TileSpriteIndex: 5
      m_TileMatrixIndex: 0
      m_TileColorIndex: 0
      m_ObjectToInstantiate: {fileID: 0}
      m_TileFlags: 1
      m_ColliderType: 1
  - first: {x: 0, y: 0, z: 0}
    second:
      m_TileIndex: 8
      m_TileSpriteIndex: 8
      m_TileMatrixIndex: 0
      m_TileColorIndex: 0
      m_ObjectToInstantiate: {fileID: 0}
      m_TileFlags: 1
      m_ColliderType: 1
  - first: {x: 1, y: 0, z: 0}
    second:
      m_TileIndex: 9
      m_TileSpriteIndex: 9
      m_TileMatrixIndex: 0
      m_TileColorIndex: 0
      m_ObjectToInstantiate: {fileID: 0}
      m_TileFlags: 1
      m_ColliderType: 1
  m_AnimatedTiles: {}
  m_TileAssetArray:
  - m_RefCount: 1
    m_Data: {fileID: 11400000, guid: 57abc45c88c549143b187bf403b4e4ad, type: 2}
  - m_RefCount: 1
    m_Data: {fileID: 11400000, guid: 168fc7aa2ccee714a86c1ad50da25a14, type: 2}
  - m_RefCount: 1
    m_Data: {fileID: 11400000, guid: 9a9816e34bc423d42a6e3ec5008fb0b7, type: 2}
  - m_RefCount: 1
    m_Data: {fileID: 11400000, guid: 8c1cb8f26a5b80149bd4b66c6f4c1d3f, type: 2}
  - m_RefCount: 1
    m_Data: {fileID: 11400000, guid: dd5408442395d974292e29c8a79c598b, type: 2}
  - m_RefCount: 1
    m_Data: {fileID: 11400000, guid: 03e4a3c76b449104c864e5d804255a91, type: 2}
  - m_RefCount: 1
    m_Data: {fileID: 11400000, guid: bcc76dd053697934ca8d7d411bb33bf8, type: 2}
  - m_RefCount: 1
    m_Data: {fileID: 11400000, guid: 7346a1204f76daf47b96edaaa2d1791e, type: 2}
  - m_RefCount: 1
    m_Data: {fileID: 11400000, guid: 6f2933bd64c595e448ecdc3f053e2456, type: 2}
  - m_RefCount: 1
    m_Data: {fileID: 11400000, guid: db6ac64a899d62a40a98c7833bd1e4a9, type: 2}
  - m_RefCount: 1
    m_Data: {fileID: 11400000, guid: 4c3b615e6b39f6a4f9fbee7ebf3083b9, type: 2}
  - m_RefCount: 1
    m_Data: {fileID: 11400000, guid: 1f3dd433a45031347af95db1bb5a9d14, type: 2}
  - m_RefCount: 1
    m_Data: {fileID: 11400000, guid: 54b1434d2f032e74b9ff551116e18375, type: 2}
  - m_RefCount: 1
    m_Data: {fileID: 11400000, guid: 17bf32c3a0757664381923e6cf3cb8b0, type: 2}
  - m_RefCount: 1
    m_Data: {fileID: 11400000, guid: 93d0ad655fe974d40a347de78b618c5d, type: 2}
  - m_RefCount: 1
    m_Data: {fileID: 11400000, guid: f7d2996054ddeb74db94ace5249809c3, type: 2}
  - m_RefCount: 1
    m_Data: {fileID: 11400000, guid: bf169adf4a6d8d047a44619d86f77a5c, type: 2}
  - m_RefCount: 1
    m_Data: {fileID: 11400000, guid: 09b754c1608d86d418e99d4d38358aae, type: 2}
  - m_RefCount: 1
    m_Data: {fileID: 11400000, guid: a6ba8241440d0dc45af8df7595553b39, type: 2}
  - m_RefCount: 1
    m_Data: {fileID: 11400000, guid: 37fdb11ff208039418c101ace806ed1b, type: 2}
  - m_RefCount: 1
    m_Data: {fileID: 11400000, guid: a905800b52e1b6b4fa36b82051e5b318, type: 2}
  - m_RefCount: 1
    m_Data: {fileID: 11400000, guid: b379eb81a336ebc4ca238484a34dc25b, type: 2}
  - m_RefCount: 1
    m_Data: {fileID: 11400000, guid: 34769149a6f946d4a8a38d7f88e78c22, type: 2}
  - m_RefCount: 1
    m_Data: {fileID: 11400000, guid: 1e80af0d8c20fac4f9558a53b57c8870, type: 2}
  - m_RefCount: 1
    m_Data: {fileID: 11400000, guid: 96238c80ecfb92c4fae123abeb21aceb, type: 2}
  - m_RefCount: 1
    m_Data: {fileID: 11400000, guid: 68f48dfe88987044988f91cbc93745b9, type: 2}
  - m_RefCount: 1
    m_Data: {fileID: 11400000, guid: e418035147f740346afa52867afe3c88, type: 2}
  - m_RefCount: 1
    m_Data: {fileID: 11400000, guid: a2b579fabf5f5f3449745fc00d272f71, type: 2}
  - m_RefCount: 1
    m_Data: {fileID: 11400000, guid: 7c4297a69d27da540a3e4f8c907329f3, type: 2}
  - m_RefCount: 1
    m_Data: {fileID: 11400000, guid: e13b1f74ad8aab449bf4d9896d97ca5c, type: 2}
  - m_RefCount: 1
    m_Data: {fileID: 11400000, guid: a53e94c31ccf8514390929ef52f70f9f, type: 2}
  - m_RefCount: 1
    m_Data: {fileID: 11400000, guid: a80374a5df285c84dbce3b875595b1be, type: 2}
  - m_RefCount: 1
    m_Data: {fileID: 11400000, guid: 2ad08fbc2510f7440977a644ee35ce88, type: 2}
  m_TileSpriteArray:
  - m_RefCount: 1
    m_Data: {fileID: 21300002, guid: ed04828330d5e2e40b1b2fa2c953ee53, type: 3}
  - m_RefCount: 1
    m_Data: {fileID: 21300004, guid: ed04828330d5e2e40b1b2fa2c953ee53, type: 3}
  - m_RefCount: 1
    m_Data: {fileID: 21300006, guid: ed04828330d5e2e40b1b2fa2c953ee53, type: 3}
  - m_RefCount: 1
    m_Data: {fileID: 21300008, guid: ed04828330d5e2e40b1b2fa2c953ee53, type: 3}
  - m_RefCount: 1
    m_Data: {fileID: 21300010, guid: ed04828330d5e2e40b1b2fa2c953ee53, type: 3}
  - m_RefCount: 1
    m_Data: {fileID: 21300012, guid: ed04828330d5e2e40b1b2fa2c953ee53, type: 3}
  - m_RefCount: 1
    m_Data: {fileID: 21300014, guid: ed04828330d5e2e40b1b2fa2c953ee53, type: 3}
  - m_RefCount: 1
    m_Data: {fileID: 21300016, guid: ed04828330d5e2e40b1b2fa2c953ee53, type: 3}
  - m_RefCount: 1
    m_Data: {fileID: 21300036, guid: ed04828330d5e2e40b1b2fa2c953ee53, type: 3}
  - m_RefCount: 1
    m_Data: {fileID: 21300038, guid: ed04828330d5e2e40b1b2fa2c953ee53, type: 3}
  - m_RefCount: 1
    m_Data: {fileID: 21300040, guid: ed04828330d5e2e40b1b2fa2c953ee53, type: 3}
  - m_RefCount: 1
    m_Data: {fileID: 21300042, guid: ed04828330d5e2e40b1b2fa2c953ee53, type: 3}
  - m_RefCount: 1
    m_Data: {fileID: 21300018, guid: ed04828330d5e2e40b1b2fa2c953ee53, type: 3}
  - m_RefCount: 1
    m_Data: {fileID: 21300020, guid: ed04828330d5e2e40b1b2fa2c953ee53, type: 3}
  - m_RefCount: 1
    m_Data: {fileID: 21300022, guid: ed04828330d5e2e40b1b2fa2c953ee53, type: 3}
  - m_RefCount: 1
    m_Data: {fileID: 21300024, guid: ed04828330d5e2e40b1b2fa2c953ee53, type: 3}
  - m_RefCount: 1
    m_Data: {fileID: 21300028, guid: ed04828330d5e2e40b1b2fa2c953ee53, type: 3}
  - m_RefCount: 1
    m_Data: {fileID: 21300026, guid: ed04828330d5e2e40b1b2fa2c953ee53, type: 3}
  - m_RefCount: 1
    m_Data: {fileID: 21300030, guid: ed04828330d5e2e40b1b2fa2c953ee53, type: 3}
  - m_RefCount: 1
    m_Data: {fileID: 21300032, guid: ed04828330d5e2e40b1b2fa2c953ee53, type: 3}
  - m_RefCount: 1
    m_Data: {fileID: 21300034, guid: ed04828330d5e2e40b1b2fa2c953ee53, type: 3}
  - m_RefCount: 1
    m_Data: {fileID: 21300000, guid: 64cc94887dbeac64e81f2ef3ce9e8e1e, type: 3}
  - m_RefCount: 1
    m_Data: {fileID: 21300000, guid: a46a32895eacbef46a4b38f25b3f0f61, type: 3}
  - m_RefCount: 1
    m_Data: {fileID: 21300046, guid: ed04828330d5e2e40b1b2fa2c953ee53, type: 3}
  - m_RefCount: 1
    m_Data: {fileID: 21300000, guid: 90dba6c4a1f7f4d448f94d6a28da5d41, type: 3}
  - m_RefCount: 1
    m_Data: {fileID: 21300044, guid: ed04828330d5e2e40b1b2fa2c953ee53, type: 3}
  - m_RefCount: 1
    m_Data: {fileID: 21300050, guid: ed04828330d5e2e40b1b2fa2c953ee53, type: 3}
  - m_RefCount: 1
    m_Data: {fileID: 21300052, guid: ed04828330d5e2e40b1b2fa2c953ee53, type: 3}
  - m_RefCount: 1
    m_Data: {fileID: 21300056, guid: ed04828330d5e2e40b1b2fa2c953ee53, type: 3}
  - m_RefCount: 1
    m_Data: {fileID: 21300048, guid: ed04828330d5e2e40b1b2fa2c953ee53, type: 3}
  - m_RefCount: 1
    m_Data: {fileID: 21300058, guid: ed04828330d5e2e40b1b2fa2c953ee53, type: 3}
  - m_RefCount: 1
    m_Data: {fileID: 21300060, guid: ed04828330d5e2e40b1b2fa2c953ee53, type: 3}
  - m_RefCount: 1
    m_Data: {fileID: 21300054, guid: ed04828330d5e2e40b1b2fa2c953ee53, type: 3}
  m_TileMatrixArray:
  - m_RefCount: 33
    m_Data:
      e00: 1
      e01: 0
      e02: 0
      e03: 0
      e10: 0
      e11: 1
      e12: 0
      e13: 0
      e20: 0
      e21: 0
      e22: 1
      e23: 0
      e30: 0
      e31: 0
      e32: 0
      e33: 1
  m_TileColorArray:
  - m_RefCount: 33
    m_Data: {r: 1, g: 1, b: 1, a: 1}
  m_AnimationFrameRate: 1
  m_Color: {r: 1, g: 1, b: 1, a: 1}
  m_Origin: {x: -5, y: -9, z: 0}
  m_Size: {x: 9, y: 10, z: 1}
  m_TileAnchor: {x: 0.5, y: 0.5, z: 0}
  m_TileOrientation: 0
  m_TileOrientationMatrix:
    e00: 1
    e01: 0
    e02: 0
    e03: 0
    e10: 0
    e11: 1
    e12: 0
    e13: 0
    e20: 0
    e21: 0
    e22: 1
    e23: 0
    e30: 0
    e31: 0
    e32: 0
    e33: 1
  m_TileRefreshArray:
  - serializedVersion: 1
    m_DirtyIndex: 0
  - serializedVersion: 1
    m_DirtyIndex: 0
  - serializedVersion: 1
    m_DirtyIndex: 0
  - serializedVersion: 1
    m_DirtyIndex: 0
  - serializedVersion: 1
    m_DirtyIndex: 0
  - serializedVersion: 1
    m_DirtyIndex: 0
  - serializedVersion: 1
    m_DirtyIndex: 0
  - serializedVersion: 1
    m_DirtyIndex: 0
  - serializedVersion: 1
    m_DirtyIndex: 0
  - serializedVersion: 1
    m_DirtyIndex: 0
  - serializedVersion: 1
    m_DirtyIndex: 0
  - serializedVersion: 1
    m_DirtyIndex: 0
  - serializedVersion: 1
    m_DirtyIndex: 0
  - serializedVersion: 1
    m_DirtyIndex: 0
  - serializedVersion: 1
    m_DirtyIndex: 0
  - serializedVersion: 1
    m_DirtyIndex: 0
  - serializedVersion: 1
    m_DirtyIndex: 0
  - serializedVersion: 1
    m_DirtyIndex: 0
  - serializedVersion: 1
    m_DirtyIndex: 0
  - serializedVersion: 1
    m_DirtyIndex: 0
  - serializedVersion: 1
    m_DirtyIndex: 0
  - serializedVersion: 1
    m_DirtyIndex: 0
  - serializedVersion: 1
    m_DirtyIndex: 0
  - serializedVersion: 1
    m_DirtyIndex: 0
  - serializedVersion: 1
    m_DirtyIndex: 0
  - serializedVersion: 1
    m_DirtyIndex: 0
  - serializedVersion: 1
    m_DirtyIndex: 0
  - serializedVersion: 1
    m_DirtyIndex: 0
  - serializedVersion: 1
    m_DirtyIndex: 0
  - serializedVersion: 1
    m_DirtyIndex: 0
  - serializedVersion: 1
    m_DirtyIndex: 0
  - serializedVersion: 1
    m_DirtyIndex: 0
  - serializedVersion: 1
    m_DirtyIndex: 0
